1	1912
2	2824
3	2339
4	2256
5	2297
6	2390
7	2692
8	3185
9	4114
10	2820
11	3954
12	4018
13	3988
14	3867
15	3933
16	4034
17	3940
18	3983
19	3906
20	3932
21	3866
22	3848
23	3907
24	3771
25	3718
26	3654
27	3556
28	3605
29	3513
30	3479
31	3435
32	3312
33	3360
34	3201
35	3300
36	3268
37	3234
38	3123
39	3121
40	3212
41	2975
42	2934
43	2901
44	2807
45	2722
46	2796
47	2700
48	2711
49	2501
50	2612
51	2458
52	2490
53	2526
54	2453
55	2529
56	2415
57	2333
58	2196
59	2131
60	2129
61	2018
62	1951
63	2018
64	1940
65	1906
66	1830
67	1844
68	1827
69	1780
70	1769
71	1675
72	1744
73	1694
74	1669
75	1570
76	1615
77	1520
78	1577
79	1542
80	1540
81	1494
82	1479
83	1411
84	1465
85	1403
86	1350
87	1357
88	1386
89	1354
90	1339
91	1318
92	1346
93	1328
94	1332
95	1331
96	1216
97	1225
98	1229
99	1232
100	1173
101	1144
102	1243
103	1147
104	1120
105	1065
106	1130
107	1072
108	1123
109	1158
110	1113
111	1056
112	1047
113	1057
114	1092
115	1040
116	1043
117	1008
118	984
119	1061
120	1008
121	1065
122	1042
123	1002
124	943
125	987
126	908
127	911
128	931
129	895
130	1005
131	905
132	879
133	940
134	926
135	935
136	867
137	825
138	880
139	883
140	877
141	828
142	937
143	841
144	828
145	848
146	849
147	819
148	777
149	829
150	835
151	770
152	772
153	787
154	804
155	802
156	764
157	756
158	740
159	762
160	770
161	750
162	749
163	717
164	711
165	692
166	736
167	695
168	767
169	705
170	733
171	726
172	711
173	662
174	698
175	673
176	664
177	667
178	638
179	622
180	610
181	657
182	589
183	633
184	645
185	640
186	641
187	655
188	607
189	612
190	637
191	597
192	601
193	634
194	587
195	599
196	600
197	620
198	652
199	613
200	601
201	599
202	585
203	583
204	594
205	583
206	546
207	560
208	591
209	579
210	568
211	542
212	589
213	565
214	549
215	538
216	521
217	539
218	571
219	544
220	513
221	527
222	532
223	499
224	536
225	500
226	497
227	472
228	520
229	521
230	542
231	476
232	478
233	507
234	517
235	525
236	472
237	496
238	489
239	498
240	493
241	476
242	460
243	482
244	448
245	467
246	459
247	474
248	475
249	470
250	456
251	448
252	435
253	441
254	469
255	395
256	425
257	422
258	434
259	444
260	422
261	394
262	415
263	393
264	395
265	428
266	420
267	455
268	412
269	398
270	427
271	371
272	405
273	395
274	395
275	393
276	425
277	397
278	377
279	363
280	444
281	395
282	375
283	379
284	388
285	373
286	375
287	382
288	357
289	371
290	368
291	379
292	387
293	359
294	390
295	382
296	376
297	354
298	371
299	352
300	332
301	353
302	374
303	344
304	328
305	347
306	328
307	382
308	358
309	371
310	350
311	357
312	365
313	358
314	327
315	344
316	311
317	310
318	333
319	304
320	314
321	316
322	351
323	325
324	301
325	328
326	305
327	319
328	288
329	316
330	309
331	349
332	316
333	350
334	320
335	309
336	274
337	317
338	301
339	332
340	310
341	251
342	298
343	313
344	307
345	308
346	297
347	288
348	286
349	276
350	284
351	245
352	289
353	282
354	269
355	254
356	288
357	260
358	295
359	266
360	271
361	265
362	269
363	296
364	260
365	269
366	244
367	262
368	284
369	275
370	282
371	290
372	265
373	258
374	260
375	255
376	250
377	263
378	253
379	250
380	243
381	221
382	228
383	235
384	243
385	236
386	228
387	263
388	263
389	229
390	262
391	268
392	234
393	260
394	249
395	253
396	245
397	216
398	251
399	265
400	231
401	232
402	244
403	240
404	211
405	238
406	238
407	218
408	255
409	230
410	212
411	229
412	225
413	236
414	235
415	250
416	265
417	207
418	225
419	220
420	215
421	225
422	225
423	240
424	200
425	225
426	196
427	218
428	236
429	202
430	197
431	207
432	208
433	213
434	229
435	203
436	205
437	201
438	199
439	205
440	220
441	224
442	189
443	208
444	214
445	177
446	188
447	210
448	215
449	181
450	210
451	187
452	190
453	218
454	190
455	193
456	181
457	193
458	195
459	176
460	146
461	191
462	172
463	178
464	208
465	160
466	214
467	173
468	166
469	188
470	195
471	167
472	157
473	200
474	186
475	196
476	159
477	183
478	157
479	190
480	182
481	169
482	159
483	166
484	175
485	184
486	165
487	168
488	178
489	175
490	167
491	172
492	176
493	143
494	219
495	157
496	165
497	164
498	153
499	150
500	161
501	166
502	161
503	159
504	158
505	168
506	161
507	164
508	151
509	170
510	152
511	187
512	195
513	136
514	162
515	174
516	126
517	150
518	149
519	159
520	149
521	126
522	149
523	148
524	168
525	148
526	160
527	162
528	152
529	155
530	166
531	147
532	140
533	139
534	142
535	139
536	163
537	144
538	127
539	158
540	147
541	125
542	132
543	133
544	133
545	163
546	142
547	146
548	133
549	167
550	139
551	137
552	136
553	125
554	152
555	158
556	146
557	139
558	127
559	136
560	141
561	130
562	134
563	160
564	128
565	134
566	140
567	125
568	120
569	135
570	116
571	132
572	138
573	121
574	127
575	130
576	144
577	123
578	124
579	137
580	137
581	139
582	122
583	127
584	118
585	119
586	115
587	125
588	136
589	137
590	128
591	124
592	98
593	124
594	108
595	115
596	116
597	103
598	119
599	119
600	130
601	120
602	124
603	140
604	110
605	142
606	116
607	141
608	125
609	125
610	111
611	118
612	97
613	134
614	124
615	104
616	111
617	105
618	117
619	106
620	110
621	110
622	111
623	101
624	113
625	122
626	105
627	110
628	105
629	122
630	113
631	109
632	119
633	100
634	106
635	112
636	100
637	106
638	95
639	103
640	102
641	93
642	93
643	79
644	99
645	98
646	86
647	94
648	100
649	110
650	119
651	88
652	102
653	93
654	104
655	100
656	98
657	105
658	113
659	94
660	89
661	98
662	92
663	101
664	90
665	88
666	90
667	108
668	107
669	91
670	103
671	85
672	101
673	96
674	110
675	80
676	84
677	91
678	96
679	93
680	88
681	88
682	95
683	81
684	101
685	94
686	84
687	68
688	90
689	84
690	76
691	93
692	93
693	99
694	81
695	80
696	97
697	85
698	82
699	95
700	82
701	72
702	83
703	100
704	98
705	75
706	92
707	87
708	84
709	84
710	80
711	78
712	81
713	80
714	69
715	73
716	89
717	81
718	83
719	84
720	72
721	90
722	68
723	80
724	67
725	76
726	93
727	76
728	65
729	83
730	74
731	89
732	83
733	62
734	88
735	78
736	80
737	70
738	87
739	74
740	72
741	60
742	70
743	72
744	75
745	59
746	61
747	73
748	61
749	62
750	70
751	74
752	64
753	67
754	76
755	80
756	91
757	70
758	69
759	72
760	60
761	65
762	76
763	60
764	70
765	72
766	65
767	65
768	61
769	54
770	80
771	60
772	58
773	72
774	63
775	69
776	63
777	69
778	69
779	81
780	70
781	61
782	73
783	60
784	48
785	79
786	71
787	66
788	62
789	67
790	53
791	78
792	49
793	64
794	73
795	64
796	56
797	60
798	53
799	63
800	49
801	71
802	63
803	58
804	67
805	69
806	68
807	54
808	62
809	64
810	65
811	65
812	54
813	57
814	49
815	61
816	63
817	55
818	52
819	60
820	65
821	50
822	69
823	54
824	63
825	55
826	63
827	54
828	58
829	58
830	53
831	57
832	59
833	46
834	63
835	58
836	54
837	50
838	57
839	61
840	54
841	50
842	66
843	40
844	48
845	56
846	57
847	72
848	48
849	57
850	54
851	59
852	46
853	46
854	53
855	58
856	47
857	48
858	54
859	76
860	46
861	40
862	57
863	48
864	53
865	49
866	62
867	50
868	52
869	52
870	52
871	44
872	53
873	50
874	41
875	48
876	47
877	52
878	52
879	41
880	52
881	40
882	48
883	41
884	61
885	48
886	59
887	60
888	37
889	44
890	67
891	35
892	44
893	51
894	50
895	40
896	45
897	49
898	45
899	49
900	50
901	38
902	39
903	42
904	41
905	46
906	37
907	62
908	41
909	52
910	39
911	43
912	46
913	43
914	45
915	33
916	40
917	37
918	48
919	48
920	49
921	48
922	40
923	41
924	43
925	46
926	38
927	41
928	42
929	41
930	48
931	42
932	38
933	37
934	45
935	45
936	45
937	41
938	45
939	40
940	40
941	36
942	47
943	47
944	43
945	47
946	41
947	34
948	38
949	35
950	34
951	58
952	41
953	35
954	31
955	35
956	33
957	32
958	34
959	44
960	34
961	38
962	42
963	32
964	53
965	47
966	34
967	34
968	43
969	25
970	43
971	40
972	37
973	34
974	31
975	38
976	39
977	55
978	28
979	40
980	34
981	33
982	45
983	49
984	27
985	41
986	38
987	33
988	35
989	52
990	40
991	29
992	35
993	36
994	42
995	37
996	40
997	37
998	29
999	32
1000	25
1001	40
1002	39
1003	29
1004	32
1005	29
1006	35
1007	35
1008	44
1009	37
1010	33
1011	33
1012	28
1013	33
1014	42
1015	21
1016	31
1017	40
1018	37
1019	37
1020	29
1021	29
1022	29
1023	27
1024	30
1025	41
1026	29
1027	36
1028	38
1029	33
1030	31
1031	22
1032	20
1033	25
1034	31
1035	32
1036	37
1037	30
1038	32
1039	26
1040	35
1041	35
1042	38
1043	36
1044	32
1045	32
1046	33
1047	34
1048	24
1049	24
1050	29
1051	25
1052	39
1053	32
1054	23
1055	19
1056	32
1057	35
1058	36
1059	28
1060	34
1061	36
1062	33
1063	26
1064	30
1065	34
1066	30
1067	34
1068	23
1069	46
1070	29
1071	29
1072	35
1073	24
1074	21
1075	28
1076	31
1077	27
1078	32
1079	18
1080	34
1081	25
1082	23
1083	20
1084	27
1085	27
1086	28
1087	39
1088	32
1089	34
1090	26
1091	23
1092	24
1093	25
1094	27
1095	28
1096	32
1097	29
1098	33
1099	29
1100	23
1101	25
1102	25
1103	37
1104	25
1105	29
1106	26
1107	23
1108	25
1109	27
1110	16
1111	23
1112	28
1113	24
1114	21
1115	27
1116	32
1117	27
1118	20
1119	28
1120	20
1121	24
1122	29
1123	25
1124	27
1125	28
1126	21
1127	22
1128	28
1129	27
1130	19
1131	31
1132	25
1133	36
1134	16
1135	29
1136	24
1137	20
1138	21
1139	18
1140	27
1141	20
1142	26
1143	41
1144	20
1145	22
1146	21
1147	32
1148	22
1149	21
1150	21
1151	19
1152	28
1153	22
1154	27
1155	31
1156	22
1157	19
1158	16
1159	26
1160	22
1161	27
1162	18
1163	23
1164	22
1165	25
1166	25
1167	20
1168	30
1169	24
1170	17
1171	18
1172	20
1173	22
1174	20
1175	20
1176	25
1177	21
1178	21
1179	18
1180	21
1181	19
1182	21
1183	19
1184	27
1185	28
1186	18
1187	14
1188	29
1189	15
1190	17
1191	24
1192	13
1193	15
1194	26
1195	14
1196	30
1197	20
1198	13
1199	13
1200	22
1201	15
1202	17
1203	13
1204	21
1205	22
1206	26
1207	22
1208	20
1209	14
1210	30
1211	15
1212	17
1213	18
1214	16
1215	11
1216	13
1217	24
1218	22
1219	18
1220	19
1221	13
1222	19
1223	16
1224	20
1225	14
1226	23
1227	21
1228	17
1229	18
1230	12
1231	18
1232	17
1233	19
1234	17
1235	15
1236	17
1237	12
1238	16
1239	14
1240	17
1241	16
1242	14
1243	19
1244	22
1245	12
1246	26
1247	23
1248	19
1249	15
1250	18
1251	19
1252	11
1253	18
1254	15
1255	24
1256	16
1257	12
1258	23
1259	20
1260	15
1261	19
1262	20
1263	18
1264	11
1265	11
1266	19
1267	11
1268	17
1269	13
1270	14
1271	10
1272	14
1273	16
1274	11
1275	11
1276	15
1277	17
1278	13
1279	9
1280	18
1281	16
1282	14
1283	22
1284	20
1285	13
1286	9
1287	20
1288	13
1289	8
1290	18
1291	13
1292	21
1293	10
1294	14
1295	14
1296	15
1297	16
1298	16
1299	13
1300	13
1301	17
1302	11
1303	11
1304	14
1305	16
1306	16
1307	9
1308	11
1309	11
1310	13
1311	9
1312	16
1313	17
1314	12
1315	17
1316	13
1317	20
1318	12
1319	22
1320	16
1321	12
1322	6
1323	22
1324	14
1325	16
1326	13
1327	16
1328	19
1329	12
1330	18
1331	12
1332	14
1333	14
1334	12
1335	24
1336	5
1337	8
1338	14
1339	14
1340	17
1341	10
1342	14
1343	16
1344	8
1345	10
1346	23
1347	10
1348	12
1349	11
1350	10
1351	10
1352	14
1353	13
1354	18
1355	7
1356	16
1357	13
1358	11
1359	14
1360	17
1361	12
1362	12
1363	16
1364	12
1365	17
1366	15
1367	8
1368	16
1369	7
1370	8
1371	15
1372	20
1373	13
1374	22
1375	18
1376	8
1377	13
1378	10
1379	22
1380	15
1381	10
1382	11
1383	14
1384	10
1385	9
1386	15
1387	11
1388	9
1389	13
1390	6
1391	15
1392	12
1393	9
1394	8
1395	11
1396	9
1397	12
1398	12
1399	14
1400	14
1401	11
1402	15
1403	24
1404	13
1405	8
1406	13
1407	10
1408	6
1409	15
1410	10
1411	10
1412	8
1413	11
1414	12
1415	8
1416	10
1417	20
1418	9
1419	14
1420	17
1421	11
1422	13
1423	11
1424	12
1425	8
1426	10
1427	9
1428	8
1429	8
1430	10
1431	10
1432	12
1433	13
1434	12
1435	7
1436	10
1437	10
1438	11
1439	10
1440	13
1441	10
1442	6
1443	11
1444	7
1445	5
1446	10
1447	14
1448	10
1449	15
1450	12
1451	6
1452	5
1453	14
1454	9
1455	7
1456	7
1457	7
1458	7
1459	10
1460	10
1461	10
1462	12
1463	12
1464	12
1465	9
1466	4
1467	8
1468	11
1469	12
1470	11
1471	8
1472	6
1473	7
1474	11
1475	10
1476	11
1477	6
1478	12
1479	5
1480	9
1481	8
1482	12
1483	8
1484	13
1485	13
1486	11
1487	5
1488	6
1489	10
1490	7
1491	10
1492	13
1493	10
1494	6
1495	4
1496	8
1497	9
1498	10
1499	8
1500	2
1501	8
1502	6
1503	13
1504	9
1505	7
1506	6
1507	8
1508	17
1509	8
1510	8
1511	9
1512	9
1513	8
1514	7
1515	13
1516	10
1517	10
1518	10
1519	8
1520	8
1521	12
1522	14
1523	13
1524	7
1525	11
1526	8
1527	4
1528	9
1529	5
1530	6
1531	9
1532	13
1533	7
1534	5
1535	7
1536	9
1537	11
1538	13
1539	13
1540	11
1541	3
1542	8
1543	4
1544	7
1545	11
1546	8
1547	9
1548	8
1549	8
1550	8
1551	10
1552	6
1553	2
1554	11
1555	4
1556	11
1557	9
1558	6
1559	4
1560	7
1561	9
1562	6
1563	6
1564	7
1565	7
1566	10
1567	9
1568	8
1569	6
1570	5
1571	12
1572	9
1573	8
1574	9
1575	7
1576	7
1577	7
1578	4
1579	4
1580	6
1581	6
1582	2
1583	10
1584	8
1585	9
1586	6
1587	6
1588	6
1589	6
1590	9
1591	6
1592	8
1593	7
1594	12
1595	4
1596	6
1597	6
1598	7
1599	6
1600	7
1601	8
1602	5
1603	3
1604	6
1605	8
1606	9
1607	7
1608	2
1609	7
1610	5
1611	8
1612	5
1613	8
1614	7
1615	6
1616	3
1617	10
1618	10
1619	12
1620	8
1621	8
1622	5
1623	6
1624	5
1625	10
1626	5
1627	8
1628	5
1629	5
1630	3
1631	7
1632	10
1633	9
1634	5
1635	5
1636	3
1637	3
1638	3
1639	3
1640	8
1641	4
1642	3
1643	8
1644	6
1645	4
1646	8
1647	4
1648	3
1649	7
1650	8
1651	11
1652	8
1653	5
1654	1
1655	4
1656	9
1657	2
1658	8
1659	13
1660	6
1661	2
1662	4
1663	6
1664	4
1665	4
1666	8
1667	7
1668	6
1669	1
1670	10
1671	6
1672	3
1673	2
1674	4
1675	6
1676	2
1677	7
1678	3
1679	1
1680	3
1681	7
1682	1
1683	5
1684	2
1685	7
1686	8
1687	3
1688	4
1689	4
1690	6
1691	6
1692	1
1693	6
1694	6
1695	5
1696	5
1697	3
1698	5
1699	6
1700	4
1701	7
1702	8
1703	5
1704	6
1705	6
1706	5
1707	6
1708	5
1709	3
1710	3
1711	8
1712	7
1713	5
1714	3
1715	6
1716	5
1717	3
1718	5
1719	4
1720	4
1721	4
1722	8
1723	5
1724	4
1725	1
1726	9
1727	3
1728	6
1729	5
1730	6
1731	5
1732	8
1733	8
1734	4
1735	3
1736	9
1737	5
1738	5
1739	4
1740	5
1741	6
1742	3
1743	4
1744	3
1745	5
1746	5
1747	2
1748	4
1749	8
1750	3
1751	4
1752	3
1753	2
1754	2
1755	3
1756	5
1757	6
1758	2
1759	6
1760	5
1761	3
1762	11
1763	9
1764	7
1765	4
1766	2
1767	4
1768	4
1769	5
1770	5
1771	6
1772	5
1773	4
1774	2
1775	3
1776	2
1777	5
1778	3
1779	2
1780	3
1781	2
1782	4
1783	3
1784	2
1785	7
1786	5
1787	7
1788	5
1789	3
1790	3
1791	2
1792	7
1793	5
1794	4
1795	6
1796	2
1797	2
1798	3
1799	5
1800	5
1801	3
1802	5
1803	5
1804	6
1805	6
1806	4
1807	5
1808	4
1809	0
1810	5
1811	6
1812	4
1813	2
1814	6
1815	6
1816	5
1817	5
1818	2
1819	2
1820	3
1821	1
1822	4
1823	4
1824	6
1825	0
1826	3
1827	2
1828	4
1829	3
1830	5
1831	3
1832	2
1833	0
1834	2
1835	3
1836	4
1837	4
1838	4
1839	5
1840	1
1841	6
1842	0
1843	4
1844	2
1845	4
1846	1
1847	5
1848	9
1849	2
1850	3
1851	6
1852	1
1853	2
1854	6
1855	7
1856	5
1857	2
1858	3
1859	7
1860	3
1861	3
1862	3
1863	4
1864	4
1865	6
1866	4
1867	1
1868	4
1869	2
1870	4
1871	2
1872	6
1873	6
1874	6
1875	3
1876	2
1877	7
1878	4
1879	1
1880	5
1881	5
1882	3
1883	3
1884	0
1885	3
1886	0
1887	4
1888	1
1889	2
1890	5
1891	1
1892	2
1893	5
1894	3
1895	3
1896	2
1897	5
1898	2
1899	6
1900	7
1901	4
1902	2
1903	5
1904	5
1905	2
1906	1
1907	5
1908	2
1909	3
1910	4
1911	3
1912	4
1913	3
1914	4
1915	2
1916	4
1917	1
1918	4
1919	5
1920	5
1921	4
1922	3
1923	2
1924	3
1925	2
1926	2
1927	3
1928	5
1929	4
1930	3
1931	2
1932	2
1933	3
1934	4
1935	4
1936	2
1937	5
1938	4
1939	4
1940	0
1941	1
1942	1
1943	6
1944	3
1945	4
1946	2
1947	3
1948	2
1949	3
1950	1
1951	2
1952	1
1953	2
1954	1
1955	2
1956	5
1957	4
1958	1
1959	2
1960	5
1961	2
1962	6
1963	1
1964	0
1965	3
1966	1
1967	3
1968	3
1969	2
1970	6
1971	3
1972	4
1973	3
1974	1
1975	2
1976	3
1977	3
1978	3
1979	2
1980	1
1981	1
1982	3
1983	3
1984	3
1985	2
1986	0
1987	4
1988	4
1989	6
1990	1
1991	3
1992	1
1993	2
1994	1
1995	1
1996	2
1997	3
1998	3
1999	3
2000	3
2001	2
2002	7
2003	2
2004	4
2005	2
2006	3
2007	2
2008	2
2009	1
2010	2
2011	2
2012	2
2013	4
2014	3
2015	6
2016	2
2017	2
2018	5
2019	6
2020	0
2021	3
2022	1
2023	3
2024	1
2025	3
2026	2
2027	4
2028	3
2029	0
2030	3
2031	5
2032	2
2033	3
2034	3
2035	1
2036	1
2037	1
2038	1
2039	3
2040	2
2041	3
2042	1
2043	2
2044	2
2045	5
2046	3
2047	1
2048	2
2049	2
2050	2
2051	1
2052	1
2053	4
2054	5
2055	5
2056	2
2057	1
2058	2
2059	3
2060	3
2061	3
2062	3
2063	3
2064	3
2065	3
2066	3
2067	2
2068	1
2069	2
2070	2
2071	0
2072	1
2073	4
2074	2
2075	0
2076	1
2077	3
2078	2
2079	1
2080	4
2081	4
2082	1
2083	2
2084	2
2085	0
2086	0
2087	1
2088	0
2089	2
2090	3
2091	2
2092	1
2093	1
2094	1
2095	1
2096	1
2097	4
2098	1
2099	2
2100	2
2101	2
2102	3
2103	2
2104	2
2105	3
2106	2
2107	1
2108	1
2109	2
2110	1
2111	2
2112	2
2113	2
2114	3
2115	2
2116	2
2117	4
2118	5
2119	0
2120	3
2121	2
2122	2
2123	0
2124	0
2125	2
2126	2
2127	0
2128	1
2129	2
2130	1
2131	2
2132	2
2133	4
2134	4
2135	0
2136	1
2137	3
2138	0
2139	1
2140	1
2141	2
2142	0
2143	1
2144	1
2145	3
2146	2
2147	1
2148	0
2149	3
2150	2
2151	2
2152	1
2153	1
2154	2
2155	1
2156	1
2157	1
2158	1
2159	1
2160	2
2161	2
2162	3
2163	2
2164	1
2165	0
2166	1
2167	2
2168	1
2169	6
2170	2
2171	4
2172	0
2173	2
2174	1
2175	1
2176	2
2177	2
2178	3
2179	1
2180	2
2181	2
2182	0
2183	1
2184	0
2185	3
2186	0
2187	2
2188	2
2189	2
2190	1
2191	1
2192	3
2193	2
2194	4
2195	1
2196	1
2197	2
2198	3
2199	1
2200	3
2201	1
2202	2
2203	2
2204	3
2205	0
2206	1
2207	0
2208	2
2209	0
2210	3
2211	0
2212	1
2213	1
2214	0
2215	3
2216	1
2217	2
2218	1
2219	2
2220	1
2221	3
2222	0
2223	0
2224	1
2225	0
2226	0
2227	0
2228	3
2229	1
2230	0
2231	0
2232	1
2233	0
2234	3
2235	0
2236	0
2237	0
2238	0
2239	2
2240	2
2241	0
2242	0
2243	0
2244	0
2245	1
2246	4
2247	3
2248	0
2249	3
2250	1
2251	5
2252	1
2253	0
2254	2
2255	2
2256	0
2257	0
2258	2
2259	1
2260	0
2261	1
2262	2
2263	1
2264	1
2265	0
2266	1
2267	0
2268	0
2269	1
2270	2
2271	1
2272	0
2273	1
2274	0
2275	3
2276	3
2277	3
2278	1
2279	1
2280	2
2281	0
2282	1
2283	1
2284	3
2285	0
2286	1
2287	0
2288	2
2289	2
2290	2
2291	2
2292	1
2293	1
2294	1
2295	1
2296	3
2297	2
2298	2
2299	0
2300	1
2301	5
2302	1
2303	1
2304	0
2305	0
2306	0
2307	1
2308	1
2309	1
2310	1
2311	2
2312	1
2313	1
2314	0
2315	0
2316	2
2317	1
2318	2
2319	2
2320	2
2321	2
2322	0
2323	1
2324	3
2325	1
2326	1
2327	3
2328	0
2329	0
2330	0
2331	3
2332	1
2333	2
2334	1
2335	3
2336	0
2337	0
2338	0
2339	0
2340	1
2341	1
2342	0
2343	1
2344	0
2345	2
2346	1
2347	0
2348	2
2349	2
2350	0
2351	0
2352	1
2353	0
2354	1
2355	1
2356	0
2357	1
2358	1
2359	1
2360	0
2361	0
2362	2
2363	1
2364	1
2365	0
2366	0
2367	0
2368	1
2369	0
2370	0
2371	2
2372	1
2373	1
2374	1
2375	1
2376	1
2377	3
2378	2
2379	1
2380	2
2381	1
2382	2
2383	0
2384	0
2385	3
2386	1
2387	1
2388	2
2389	1
2390	0
2391	2
2392	1
2393	3
2394	2
2395	0
2396	1
2397	0
2398	0
2399	0
2400	3
2401	2
2402	0
2403	0
2404	1
2405	1
2406	0
2407	0
2408	1
2409	1
2410	2
2411	1
2412	1
2413	2
2414	3
2415	0
2416	0
2417	0
2418	1
2419	1
2420	0
2421	0
2422	1
2423	3
2424	0
2425	1
2426	3
2427	0
2428	1
2429	0
2430	1
2431	1
2432	2
2433	1
2434	1
2435	1
2436	0
2437	0
2438	1
2439	0
2440	0
2441	1
2442	1
2443	0
2444	1
2445	1
2446	0
2447	3
2448	1
2449	2
2450	2
2451	2
2452	0
2453	1
2454	2
2455	0
2456	2
2457	0
2458	0
2459	3
2460	1
2461	0
2462	0
2463	0
2464	1
2465	2
2466	0
2467	2
2468	0
2469	0
2470	1
2471	1
2472	1
2473	0
2474	0
2475	1
2476	1
2477	0
2478	1
2479	3
2480	0
2481	1
2482	2
2483	1
2484	1
2485	1
2486	4
2487	1
2488	1
2489	1
2490	0
2491	2
2492	1
2493	0
2494	1
2495	1
2496	1
2497	1
2498	2
2499	0
2500	1
2501	0
2502	0
2503	1
2504	1
2505	0
2506	1
2507	0
2508	1
2509	2
2510	1
2511	1
2512	0
2513	0
2514	0
2515	0
2516	2
2517	0
2518	3
2519	1
2520	0
2521	0
2522	0
2523	0
2524	1
2525	2
2526	0
2527	0
2528	0
2529	0
2530	0
2531	1
2532	0
2533	0
2534	0
2535	0
2536	0
2537	3
2538	1
2539	0
2540	1
2541	0
2542	1
2543	1
2544	0
2545	1
2546	0
2547	1
2548	0
2549	1
2550	0
2551	0
2552	1
2553	2
2554	1
2555	1
2556	1
2557	0
2558	0
2559	2
2560	3
2561	2
2562	0
2563	0
2564	1
2565	0
2566	1
2567	1
2568	1
2569	1
2570	1
2571	2
2572	0
2573	2
2574	0
2575	2
2576	1
2577	2
2578	1
2579	1
2580	0
2581	0
2582	1
2583	1
2584	0
2585	1
2586	0
2587	2
2588	1
2589	1
2590	1
2591	1
2592	0
2593	0
2594	0
2595	0
2596	2
2597	1
2598	0
2599	1
2600	1
2601	0
2602	1
2603	3
2604	1
2605	1
2606	1
2607	1
2608	0
2609	1
2610	2
2611	0
2612	0
2613	1
2614	0
2615	0
2616	0
2617	1
2618	0
2619	1
2620	1
2621	0
2622	2
2623	0
2624	0
2625	1
2626	0
2627	1
2628	1
2629	0
2630	1
2631	1
2632	1
2633	1
2634	0
2635	2
2636	1
2637	0
2638	0
2639	0
2640	0
2641	0
2642	0
2643	0
2644	2
2645	1
2646	1
2647	1
2648	1
2649	1
2650	1
2651	0
2652	0
2653	0
2654	0
2655	0
2656	0
2657	2
2658	1
2659	0
2660	2
2661	1
2662	0
2663	0
2664	0
2665	1
2666	0
2667	0
2668	0
2669	2
2670	0
2671	0
2672	0
2673	0
2674	0
2675	0
2676	1
2677	1
2678	1
2679	0
2680	2
2681	1
2682	1
2683	1
2684	0
2685	1
2686	0
2687	0
2688	1
2689	0
2690	0
2691	1
2692	1
2693	0
2694	0
2695	2
2696	0
2697	0
2698	0
2699	0
2700	1
2701	0
2702	0
2703	0
2704	0
2705	0
2706	1
2707	1
2708	0
2709	0
2710	1
2711	1
2712	3
2713	1
2714	0
2715	0
2716	0
2717	2
2718	3
2719	2
2720	0
2721	0
2722	3
2723	0
2724	2
2725	0
2726	0
2727	1
2728	1
2729	0
2730	0
2731	0
2732	1
2733	0
2734	1
2735	2
2736	1
2737	0
2738	1
2739	0
2740	1
2741	0
2742	0
2743	0
2744	0
2745	1
2746	0
2747	2
2748	1
2749	0
2750	0
2751	0
2752	0
2753	2
2754	0
2755	1
2756	0
2757	0
2758	2
2759	1
2760	0
2761	0
2762	1
2763	0
2764	0
2765	0
2766	0
2767	1
2768	1
2769	0
2770	0
2771	0
2772	0
2773	0
2774	0
2775	2
2776	0
2777	0
2778	0
2779	0
2780	0
2781	0
2782	0
2783	0
2784	1
2785	1
2786	0
2787	0
2788	0
2789	0
2790	0
2791	1
2792	0
2793	0
2794	1
2795	1
2796	0
2797	2
2798	0
2799	0
2800	0
2801	0
2802	1
2803	1
2804	1
2805	0
2806	0
2807	0
2808	0
2809	0
2810	0
2811	1
2812	0
2813	1
2814	0
2815	2
2816	0
2817	0
2818	0
2819	0
2820	1
2821	0
2822	0
2823	0
2824	0
2825	0
2826	0
2827	0
2828	2
2829	0
2830	1
2831	0
2832	0
2833	1
2834	0
2835	0
2836	2
2837	0
2838	0
2839	0
2840	0
2841	0
2842	0
2843	0
2844	0
2845	0
2846	1
2847	1
2848	1
2849	0
2850	0
2851	0
2852	2
2853	0
2854	3
2855	0
2856	1
2857	0
2858	0
2859	1
2860	0
2861	0
2862	0
2863	0
2864	1
2865	0
2866	1
2867	1
2868	0
2869	0
2870	0
2871	0
2872	0
2873	1
2874	2
2875	0
2876	0
2877	2
2878	3
2879	2
2880	3
2881	0
2882	0
2883	0
2884	0
2885	0
2886	0
2887	0
2888	0
2889	1
2890	0
2891	1
2892	0
2893	1
2894	0
2895	0
2896	0
2897	0
2898	0
2899	1
2900	0
2901	0
2902	0
2903	0
2904	0
2905	0
2906	0
2907	0
2908	1
2909	0
2910	0
2911	0
2912	0
2913	0
2914	1
2915	0
2916	1
2917	0
2918	0
2919	0
2920	0
2921	0
2922	0
2923	0
2924	0
2925	0
2926	0
2927	0
2928	0
2929	1
2930	0
2931	0
2932	1
2933	0
2934	0
2935	0
2936	0
2937	0
2938	0
2939	2
2940	0
2941	0
2942	0
2943	1
2944	1
2945	0
2946	0
2947	0
2948	0
2949	0
2950	2
2951	1
2952	0
2953	0
2954	0
2955	0
2956	1
2957	0
2958	0
2959	0
2960	1
2961	0
2962	0
2963	0
2964	2
2965	0
2966	0
2967	0
2968	1
2969	2
2970	0
2971	0
2972	0
2973	0
2974	0
2975	1
2976	0
2977	1
2978	3
2979	0
2980	2
2981	0
2982	0
2983	0
2984	0
2985	0
2986	1
2987	0
2988	0
2989	0
2990	0
2991	1
2992	0
2993	1
2994	0
2995	0
2996	1
2997	0
2998	0
2999	0
3000	1
3001	0
3002	1
3003	0
3004	0
3005	0
3006	0
3007	0
3008	1
3009	0
3010	2
3011	0
3012	0
3013	0
3014	0
3015	0
3016	1
3017	0
3018	0
3019	0
3020	0
3021	0
3022	0
3023	2
3024	0
3025	0
3026	1
3027	0
3028	0
3029	0
3030	0
3031	0
3032	0
3033	0
3034	0
3035	0
3036	0
3037	0
3038	0
3039	0
3040	0
3041	0
3042	0
3043	1
3044	0
3045	1
3046	0
3047	0
3048	0
3049	0
3050	0
3051	0
3052	0
3053	0
3054	0
3055	0
3056	0
3057	0
3058	0
3059	0
3060	0
3061	1
3062	0
3063	0
3064	1
3065	2
3066	0
3067	0
3068	0
3069	0
3070	0
3071	1
3072	0
3073	0
3074	0
3075	0
3076	0
3077	1
3078	0
3079	0
3080	0
3081	0
3082	0
3083	1
3084	1
3085	1
3086	0
3087	0
3088	0
3089	0
3090	0
3091	0
3092	0
3093	1
3094	1
3095	2
3096	0
3097	0
3098	1
3099	0
3100	0
3101	0
3102	0
3103	0
3104	0
3105	1
3106	0
3107	1
3108	0
3109	0
3110	0
3111	0
3112	0
3113	0
3114	0
3115	0
3116	2
3117	0
3118	0
3119	1
3120	1
3121	0
3122	0
3123	1
3124	0
3125	0
3126	0
3127	0
3128	0
3129	1
3130	1
3131	0
3132	0
3133	0
3134	1
3135	0
3136	0
3137	0
3138	0
3139	0
3140	0
3141	1
3142	0
3143	0
3144	0
3145	0
3146	0
3147	0
3148	2
3149	0
3150	0
3151	0
3152	0
3153	0
3154	1
3155	0
3156	0
3157	0
3158	0
3159	0
3160	0
3161	0
3162	2
3163	1
3164	0
3165	0
3166	1
3167	2
3168	0
3169	0
3170	0
3171	1
3172	1
3173	0
3174	0
3175	0
3176	0
3177	0
3178	0
3179	0
3180	0
3181	0
3182	0
3183	0
3184	0
3185	1
3186	0
3187	0
3188	0
3189	0
3190	0
3191	0
3192	0
3193	0
3194	0
3195	0
3196	0
3197	0
3198	0
3199	0
3200	0
3201	0
3202	0
3203	0
3204	0
3205	1
3206	1
3207	1
3208	0
3209	0
3210	0
3211	0
3212	1
3213	0
3214	1
3215	1
3216	0
3217	1
3218	0
3219	0
3220	0
3221	0
3222	0
3223	0
3224	0
3225	2
3226	0
3227	1
3228	0
3229	1
3230	0
3231	0
3232	1
3233	0
3234	0
3235	0
3236	1
3237	0
3238	0
3239	0
3240	1
3241	0
3242	0
3243	0
3244	0
3245	0
3246	0
3247	0
3248	0
3249	0
3250	0
3251	0
3252	1
3253	0
3254	1
3255	0
3256	1
3257	1
3258	0
3259	0
3260	1
3261	0
3262	0
3263	1
3264	0
3265	0
3266	0
3267	1
3268	0
3269	0
3270	0
3271	0
3272	0
3273	0
3274	1
3275	0
3276	1
3277	0
3278	0
3279	0
3280	0
3281	0
3282	0
3283	0
3284	0
3285	0
3286	0
3287	0
3288	0
3289	1
3290	1
3291	1
3292	0
3293	0
3294	0
3295	0
3296	1
3297	0
3298	0
3299	1
3300	0
3301	0
3302	0
3303	0
3304	1
3305	0
3306	1
3307	0
3308	0
3309	0
3310	0
3311	0
3312	0
3313	0
3314	0
3315	0
3316	0
3317	0
3318	0
3319	0
3320	0
3321	0
3322	0
3323	0
3324	0
3325	0
3326	0
3327	0
3328	0
3329	0
3330	1
3331	1
3332	0
3333	0
3334	0
3335	0
3336	0
3337	1
3338	0
3339	0
3340	0
3341	0
3342	0
3343	1
3344	1
3345	0
3346	0
3347	1
3348	0
3349	0
3350	0
3351	0
3352	0
3353	0
3354	0
3355	0
3356	0
3357	0
3358	0
3359	0
3360	1
3361	0
3362	0
3363	0
3364	0
3365	0
3366	0
3367	1
3368	0
3369	1
3370	0
3371	0
3372	0
3373	1
3374	1
3375	0
3376	0
3377	0
3378	0
3379	0
3380	0
3381	1
3382	0
3383	0
3384	0
3385	0
3386	0
3387	1
3388	0
3389	0
3390	0
3391	1
3392	0
3393	0
3394	0
3395	0
3396	1
3397	0
3398	0
3399	0
3400	0
3401	0
3402	0
3403	1
3404	1
3405	0
3406	0
3407	0
3408	0
3409	0
3410	0
3411	0
3412	0
3413	0
3414	0
3415	0
3416	0
3417	0
3418	0
3419	0
3420	0
3421	0
3422	0
3423	0
3424	0
3425	0
3426	0
3427	1
3428	0
3429	0
3430	0
3431	0
3432	0
3433	1
3434	0
3435	0
3436	0
3437	1
3438	0
3439	0
3440	1
3441	0
3442	0
3443	0
3444	1
3445	0
3446	0
3447	0
3448	0
3449	1
3450	0
3451	0
3452	0
3453	0
3454	0
3455	0
3456	0
3457	0
3458	0
3459	0
3460	1
3461	0
3462	0
3463	0
3464	0
3465	1
3466	0
3467	0
3468	1
3469	0
3470	1
3471	0
3472	0
3473	0
3474	0
3475	0
3476	0
3477	0
3478	0
3479	1
3480	0
3481	0
3482	0
3483	0
3484	0
3485	0
3486	0
3487	1
3488	0
3489	0
3490	0
3491	0
3492	0
3493	0
3494	0
3495	0
3496	0
3497	0
3498	0
3499	0
3500	0
3501	0
3502	0
3503	0
3504	1
3505	0
3506	0
3507	0
3508	0
3509	0
3510	0
3511	1
3512	0
3513	0
3514	0
3515	0
3516	0
3517	0
3518	0
3519	1
3520	0
3521	0
3522	0
3523	0
3524	0
3525	0
3526	0
3527	0
3528	0
3529	0
3530	0
3531	1
3532	0
3533	0
3534	0
3535	0
3536	0
3537	0
3538	0
3539	0
3540	0
3541	0
3542	0
3543	0
3544	0
3545	0
3546	0
3547	0
3548	0
3549	0
3550	0
3551	0
3552	0
3553	1
3554	0
3555	0
3556	0
3557	0
3558	0
3559	0
3560	0
3561	0
3562	0
3563	1
3564	0
3565	0
3566	0
3567	1
3568	0
3569	1
3570	1
3571	0
3572	0
3573	0
3574	0
3575	0
3576	0
3577	0
3578	0
3579	0
3580	0
3581	0
3582	0
3583	0
3584	0
3585	0
3586	0
3587	0
3588	0
3589	0
3590	0
3591	0
3592	0
3593	0
3594	0
3595	0
3596	0
3597	0
3598	0
3599	0
3600	0
3601	0
3602	0
3603	0
3604	0
3605	0
3606	0
3607	0
3608	0
3609	0
3610	0
3611	0
3612	1
3613	0
3614	0
3615	0
3616	0
3617	0
3618	0
3619	0
3620	0
3621	0
3622	0
3623	0
3624	0
3625	0
3626	0
3627	0
3628	0
3629	0
3630	0
3631	0
3632	0
3633	0
3634	0
3635	1
3636	0
3637	0
3638	0
3639	0
3640	0
3641	0
3642	0
3643	0
3644	0
3645	0
3646	0
3647	1
3648	0
3649	0
3650	0
3651	1
3652	0
3653	0
3654	0
3655	0
3656	0
3657	0
3658	0
3659	1
3660	0
3661	0
3662	0
3663	0
3664	0
3665	0
3666	0
3667	0
3668	1
3669	1
3670	0
3671	0
3672	0
3673	0
3674	0
3675	0
3676	0
3677	1
3678	0
3679	0
3680	0
3681	0
3682	0
3683	0
3684	0
3685	0
3686	1
3687	0
3688	0
3689	0
3690	0
3691	0
3692	0
3693	0
3694	0
3695	0
3696	0
3697	0
3698	0
3699	1
3700	0
3701	0
3702	0
3703	0
3704	0
3705	0
3706	0
3707	0
3708	0
3709	0
3710	0
3711	0
3712	0
3713	0
3714	0
3715	0
3716	0
3717	1
3718	1
3719	0
3720	0
3721	0
3722	0
3723	0
3724	0
3725	0
3726	0
3727	0
3728	0
3729	0
3730	0
3731	0
3732	0
3733	1
3734	0
3735	0
3736	0
3737	0
3738	0
3739	0
3740	0
3741	0
3742	0
3743	0
3744	0
3745	0
3746	0
3747	1
3748	0
3749	0
3750	0
3751	0
3752	0
3753	0
3754	0
3755	0
3756	0
3757	0
3758	0
3759	0
3760	0
3761	0
3762	0
3763	0
3764	0
3765	0
3766	0
3767	0
3768	0
3769	0
3770	0
3771	0
3772	0
3773	0
3774	0
3775	0
3776	0
3777	0
3778	0
3779	0
3780	0
3781	0
3782	0
3783	0
3784	0
3785	0
3786	0
3787	0
3788	0
3789	0
3790	0
3791	0
3792	0
3793	0
3794	0
3795	0
3796	0
3797	0
3798	0
3799	0
3800	0
3801	1
3802	0
3803	0
3804	0
3805	0
3806	0
3807	0
3808	0
3809	0
3810	0
3811	0
3812	1
3813	0
3814	0
3815	0
3816	0
3817	0
3818	0
3819	0
3820	0
3821	0
3822	0
3823	0
3824	1
3825	0
3826	0
3827	0
3828	0
3829	0
3830	0
3831	0
3832	0
3833	0
3834	0
3835	0
3836	0
3837	0
3838	0
3839	0
3840	0
3841	0
3842	0
3843	1
3844	0
3845	0
3846	0
3847	0
3848	0
3849	1
3850	0
3851	0
3852	0
3853	0
3854	0
3855	0
3856	0
3857	0
3858	0
3859	0
3860	0
3861	0
3862	0
3863	1
3864	0
3865	0
3866	0
3867	0
3868	0
3869	0
3870	0
3871	0
3872	0
3873	0
3874	1
3875	0
3876	0
3877	0
3878	0
3879	0
3880	0
3881	0
3882	0
3883	0
3884	0
3885	0
3886	0
3887	0
3888	0
3889	0
3890	0
3891	0
3892	0
3893	0
3894	0
3895	0
3896	0
3897	0
3898	0
3899	0
3900	0
3901	0
3902	0
3903	0
3904	0
3905	0
3906	0
3907	0
3908	0
3909	0
3910	0
3911	0
3912	0
3913	0
3914	0
3915	0
3916	0
3917	0
3918	0
3919	0
3920	0
3921	0
3922	0
3923	0
3924	0
3925	1
3926	0
3927	0
3928	0
3929	0
3930	0
3931	0
3932	0
3933	0
3934	0
3935	0
3936	0
3937	0
3938	0
3939	0
3940	0
3941	0
3942	0
3943	0
3944	0
3945	0
3946	0
3947	0
3948	1
3949	0
3950	0
3951	0
3952	0
3953	0
3954	0
3955	0
3956	0
3957	0
3958	0
3959	0
3960	0
3961	0
3962	0
3963	0
3964	0
3965	0
3966	0
3967	0
3968	0
3969	0
3970	1
3971	0
3972	0
3973	0
3974	0
3975	0
3976	0
3977	0
3978	0
3979	0
3980	0
3981	0
3982	1
3983	0
3984	0
3985	0
3986	1
3987	0
3988	0
3989	0
3990	0
3991	0
3992	0
3993	0
3994	0
3995	0
3996	0
3997	0
3998	0
3999	0
4000	0
4001	1
4002	0
4003	1
4004	0
4005	0
4006	0
4007	0
4008	1
4009	0
4010	0
4011	0
4012	1
4013	1
4014	0
4015	0
4016	0
4017	0
4018	0
4019	0
4020	0
4021	1
4022	0
4023	0
4024	0
4025	0
4026	0
4027	0
4028	0
4029	0
4030	0
4031	0
4032	0
4033	0
4034	0
4035	0
4036	0
4037	0
4038	0
4039	0
4040	0
4041	0
4042	0
4043	0
4044	0
4045	1
4046	0
4047	0
4048	0
4049	0
4050	0
4051	0
4052	0
4053	0
4054	0
4055	0
4056	0
4057	0
4058	0
4059	0
4060	0
4061	0
4062	0
4063	0
4064	1
4065	0
4066	0
4067	0
4068	0
4069	0
4070	0
4071	0
4072	0
4073	0
4074	0
4075	0
4076	0
4077	0
4078	0
4079	0
4080	0
4081	0
4082	0
4083	0
4084	0
4085	0
4086	0
4087	0
4088	0
4089	0
4090	0
4091	0
4092	0
4093	0
4094	0
4095	0
4096	1
4097	1
4098	0
4099	0
4100	0
4101	0
4102	0
4103	0
4104	0
4105	1
4106	0
4107	0
4108	0
4109	0
4110	0
4111	0
4112	0
4113	0
4114	0
4115	0
4116	0
4117	0
4118	0
4119	0
4120	0
4121	1
4122	0
4123	0
4124	1
4125	0
4126	0
4127	0
4128	0
4129	0
4130	0
4131	0
4132	0
4133	0
4134	0
4135	0
4136	0
4137	0
4138	0
4139	0
4140	0
4141	0
4142	0
4143	0
4144	0
4145	0
4146	0
4147	0
4148	0
4149	0
4150	0
4151	0
4152	0
4153	0
4154	0
4155	0
4156	0
4157	0
4158	0
4159	0
4160	0
4161	0
4162	0
4163	0
4164	0
4165	0
4166	0
4167	0
4168	1
4169	0
4170	0
4171	0
4172	0
4173	0
4174	0
4175	0
4176	1
4177	0
4178	0
4179	1
4180	0
4181	0
4182	0
4183	0
4184	0
4185	0
4186	0
4187	0
4188	0
4189	0
4190	0
4191	0
4192	0
4193	0
4194	0
4195	0
4196	0
4197	0
4198	0
4199	0
4200	0
4201	0
4202	0
4203	0
4204	0
4205	0
4206	0
4207	0
4208	0
4209	0
4210	0
4211	0
4212	0
4213	0
4214	0
4215	0
4216	0
4217	0
4218	0
4219	0
4220	0
4221	0
4222	0
4223	0
4224	0
4225	0
4226	0
4227	0
4228	0
4229	0
4230	0
4231	0
4232	0
4233	0
4234	0
4235	0
4236	0
4237	0
4238	0
4239	0
4240	0
4241	0
4242	0
4243	0
4244	0
4245	0
4246	0
4247	0
4248	0
4249	0
4250	0
4251	0
4252	0
4253	0
4254	0
4255	0
4256	0
4257	0
4258	0
4259	0
4260	0
4261	0
4262	0
4263	0
4264	0
4265	0
4266	0
4267	0
4268	0
4269	0
4270	0
4271	0
4272	0
4273	0
4274	0
4275	0
4276	1
4277	0
4278	0
4279	0
4280	0
4281	0
4282	0
4283	0
4284	1
4285	0
4286	0
4287	0
4288	0
4289	0
4290	0
4291	0
4292	0
4293	0
4294	0
4295	0
4296	0
4297	0
4298	0
4299	0
4300	0
4301	0
4302	0
4303	0
4304	0
4305	0
4306	0
4307	0
4308	0
4309	0
4310	0
4311	0
4312	0
4313	0
4314	0
4315	0
4316	0
4317	0
4318	0
4319	0
4320	0
4321	0
4322	1
4323	0
4324	1
4325	0
4326	0
4327	0
4328	0
4329	1
4330	0
4331	0
4332	0
4333	0
4334	0
4335	0
4336	0
4337	0
4338	0
4339	0
4340	0
4341	0
4342	1
4343	0
4344	0
4345	0
4346	0
4347	0
4348	0
4349	0
4350	0
4351	0
4352	0
4353	0
4354	0
4355	0
4356	0
4357	0
4358	0
4359	0
4360	0
4361	0
4362	0
4363	0
4364	0
4365	0
4366	1
4367	0
4368	0
4369	0
4370	0
4371	0
4372	0
4373	0
4374	0
4375	0
4376	0
4377	0
4378	0
4379	0
4380	0
4381	0
4382	0
4383	0
4384	0
4385	0
4386	0
4387	0
4388	0
4389	0
4390	0
4391	0
4392	0
4393	1
4394	0
4395	0
4396	0
4397	0
4398	0
4399	0
4400	0
4401	0
4402	1
4403	0
4404	0
4405	0
4406	0
4407	0
4408	0
4409	0
4410	0
4411	0
4412	1
4413	0
4414	0
4415	0
4416	0
4417	0
4418	0
4419	0
4420	0
4421	0
4422	0
4423	0
4424	0
4425	0
4426	0
4427	0
4428	0
4429	0
4430	0
4431	1
4432	0
4433	0
4434	0
4435	0
4436	0
4437	0
4438	0
4439	0
4440	0
4441	0
4442	0
4443	0
4444	0
4445	0
4446	0
4447	0
4448	0
4449	0
4450	0
4451	0
4452	0
4453	0
4454	0
4455	0
4456	0
4457	0
4458	0
4459	0
4460	0
4461	0
4462	0
4463	0
4464	0
4465	0
4466	0
4467	0
4468	0
4469	0
4470	0
4471	0
4472	0
4473	1
4474	0
4475	0
4476	0
4477	0
4478	0
4479	0
4480	0
4481	0
4482	0
4483	0
4484	0
4485	0
4486	0
4487	0
4488	0
4489	0
4490	0
4491	0
4492	0
4493	0
4494	0
4495	0
4496	0
4497	0
4498	0
4499	0
4500	0
4501	0
4502	0
4503	0
4504	0
4505	0
4506	0
4507	0
4508	0
4509	0
4510	0
4511	0
4512	0
4513	0
4514	0
4515	0
4516	0
4517	0
4518	0
4519	0
4520	0
4521	0
4522	0
4523	0
4524	0
4525	0
4526	0
4527	0
4528	0
4529	0
4530	0
4531	0
4532	0
4533	0
4534	0
4535	0
4536	0
4537	0
4538	0
4539	0
4540	0
4541	0
4542	0
4543	0
4544	0
4545	0
4546	0
4547	0
4548	0
4549	0
4550	0
4551	0
4552	0
4553	0
4554	0
4555	0
4556	0
4557	1
4558	0
4559	0
4560	0
4561	0
4562	0
4563	0
4564	0
4565	0
4566	0
4567	0
4568	0
4569	0
4570	0
4571	0
4572	0
4573	1
4574	0
4575	0
4576	0
4577	1
4578	0
4579	0
4580	0
4581	0
4582	0
4583	0
4584	0
4585	0
4586	0
4587	0
4588	0
4589	0
4590	0
4591	0
4592	0
4593	0
4594	0
4595	0
4596	0
4597	0
4598	0
4599	0
4600	0
4601	0
4602	0
4603	0
4604	0
4605	0
4606	0
4607	0
4608	0
4609	0
4610	0
4611	0
4612	0
4613	0
4614	0
4615	0
4616	0
4617	0
4618	0
4619	0
4620	0
4621	0
4622	0
4623	0
4624	0
4625	0
4626	0
4627	0
4628	0
4629	0
4630	0
4631	0
4632	0
4633	0
4634	0
4635	0
4636	0
4637	0
4638	0
4639	0
4640	0
4641	0
4642	0
4643	0
4644	0
4645	0
4646	0
4647	0
4648	0
4649	0
4650	0
4651	0
4652	0
4653	0
4654	1
4655	0
4656	0
4657	1
4658	0
4659	0
4660	0
4661	0
4662	0
4663	0
4664	0
4665	0
4666	0
4667	0
4668	0
4669	0
4670	0
4671	0
4672	0
4673	0
4674	0
4675	0
4676	1
4677	0
4678	0
4679	0
4680	0
4681	0
4682	0
4683	0
4684	0
4685	0
4686	0
4687	0
4688	0
4689	0
4690	0
4691	0
4692	0
4693	0
4694	0
4695	0
4696	0
4697	0
4698	0
4699	0
4700	0
4701	0
4702	0
4703	0
4704	0
4705	0
4706	0
4707	0
4708	0
4709	0
4710	0
4711	0
4712	0
4713	0
4714	0
4715	0
4716	0
4717	0
4718	0
4719	0
4720	0
4721	0
4722	0
4723	0
4724	0
4725	0
4726	1
4727	1
4728	0
4729	1
4730	0
4731	0
4732	0
4733	0
4734	0
4735	0
4736	0
4737	0
4738	0
4739	0
4740	0
4741	0
4742	0
4743	0
4744	0
4745	0
4746	1
4747	1
4748	0
4749	0
4750	0
4751	0
4752	0
4753	0
4754	0
4755	0
4756	0
4757	0
4758	0
4759	2
4760	0
4761	0
4762	0
4763	0
4764	0
4765	0
4766	0
4767	0
4768	0
4769	0
4770	0
4771	0
4772	0
4773	0
4774	0
4775	0
4776	0
4777	0
4778	0
4779	0
4780	0
4781	0
4782	0
4783	0
4784	0
4785	0
4786	0
4787	0
4788	0
4789	0
4790	0
4791	0
4792	0
4793	0
4794	1
4795	0
4796	0
4797	0
4798	0
4799	0
4800	0
4801	0
4802	0
4803	0
4804	0
4805	0
4806	0
4807	0
4808	0
4809	0
4810	0
4811	0
4812	0
4813	0
4814	0
4815	0
4816	0
4817	0
4818	0
4819	0
4820	0
4821	0
4822	0
4823	0
4824	0
4825	0
4826	0
4827	0
4828	0
4829	0
4830	0
4831	0
4832	0
4833	0
4834	0
4835	0
4836	0
4837	0
4838	0
4839	0
4840	0
4841	0
4842	0
4843	0
4844	0
4845	0
4846	0
4847	0
4848	0
4849	0
4850	0
4851	0
4852	0
4853	0
4854	0
4855	0
4856	0
4857	0
4858	0
4859	0
4860	0
4861	0
4862	0
4863	0
4864	0
4865	0
4866	0
4867	0
4868	0
4869	0
4870	0
4871	0
4872	0
4873	0
4874	0
4875	0
4876	0
4877	0
4878	0
4879	0
4880	0
4881	0
4882	0
4883	0
4884	0
4885	0
4886	0
4887	0
4888	0
4889	0
4890	0
4891	0
4892	0
4893	0
4894	0
4895	0
4896	0
4897	0
4898	0
4899	0
4900	0
4901	0
4902	0
4903	0
4904	0
4905	0
4906	0
4907	0
4908	1
4909	0
4910	0
4911	0
4912	0
4913	0
4914	0
4915	0
4916	0
4917	0
4918	0
4919	0
4920	0
4921	0
4922	0
4923	1
4924	0
4925	0
4926	0
4927	0
4928	0
4929	0
4930	0
4931	0
4932	0
4933	0
4934	0
4935	0
4936	0
4937	0
4938	0
4939	0
4940	0
4941	0
4942	0
4943	0
4944	1
4945	0
4946	0
4947	0
4948	1
4949	0
4950	0
4951	0
4952	0
4953	0
4954	0
4955	0
4956	0
4957	0
4958	0
4959	0
4960	0
4961	0
4962	0
4963	0
4964	0
4965	0
4966	0
4967	0
4968	0
4969	0
4970	0
4971	0
4972	0
4973	0
4974	0
4975	0
4976	0
4977	0
4978	0
4979	0
4980	0
4981	0
4982	0
4983	0
4984	0
4985	0
4986	0
4987	0
4988	0
4989	0
4990	0
4991	0
4992	0
4993	0
4994	0
4995	0
4996	0
4997	0
4998	0
4999	0
5000	0
5001	0
5002	0
5003	0
5004	0
5005	0
5006	0
5007	0
5008	0
5009	0
5010	0
5011	0
5012	0
5013	0
5014	0
5015	0
5016	0
5017	0
5018	0
5019	0
5020	0
5021	0
5022	0
5023	0
5024	0
5025	0
5026	0
5027	0
5028	0
5029	0
5030	0
5031	0
5032	0
5033	0
5034	0
5035	0
5036	0
5037	0
5038	0
5039	0
5040	0
5041	0
5042	0
5043	0
5044	0
5045	0
5046	0
5047	0
5048	0
5049	0
5050	0
5051	0
5052	0
5053	0
5054	0
5055	0
5056	0
5057	0
5058	0
5059	0
5060	0
5061	0
5062	0
5063	0
5064	0
5065	0
5066	0
5067	0
5068	0
5069	0
5070	0
5071	0
5072	0
5073	0
5074	0
5075	0
5076	0
5077	0
5078	0
5079	0
5080	0
5081	0
5082	0
5083	0
5084	0
5085	0
5086	0
5087	0
5088	0
5089	0
5090	0
5091	0
5092	0
5093	1
5094	0
5095	0
5096	0
5097	0
5098	0
5099	0
5100	0
5101	0
5102	0
5103	0
5104	0
5105	0
5106	0
5107	0
5108	0
5109	0
5110	0
5111	0
5112	0
5113	0
5114	0
5115	0
5116	0
5117	0
5118	0
5119	0
5120	0
5121	0
5122	0
5123	0
5124	0
5125	0
5126	0
5127	0
5128	0
5129	0
5130	0
5131	0
5132	0
5133	0
5134	0
5135	0
5136	0
5137	0
5138	0
5139	0
5140	0
5141	0
5142	1
5143	0
5144	0
5145	0
5146	0
5147	1
5148	0
5149	0
5150	0
5151	0
5152	0
5153	0
5154	0
5155	0
5156	0
5157	0
5158	0
5159	0
5160	0
5161	0
5162	0
5163	0
5164	0
5165	0
5166	0
5167	0
5168	0
5169	0
5170	0
5171	0
5172	0
5173	0
5174	0
5175	0
5176	0
5177	0
5178	0
5179	0
5180	0
5181	0
5182	0
5183	0
5184	0
5185	0
5186	0
5187	0
5188	0
5189	0
5190	0
5191	0
5192	0
5193	0
5194	0
5195	0
5196	0
5197	0
5198	0
5199	0
5200	0
5201	0
5202	0
5203	0
5204	0
5205	0
5206	0
5207	0
5208	0
5209	0
5210	0
5211	0
5212	0
5213	0
5214	0
5215	0
5216	0
5217	0
5218	0
5219	0
5220	0
5221	0
5222	0
5223	0
5224	0
5225	0
5226	0
5227	0
5228	0
5229	0
5230	0
5231	0
5232	0
5233	0
5234	0
5235	0
5236	0
5237	0
5238	0
5239	0
5240	0
5241	0
5242	0
5243	0
5244	0
5245	0
5246	1
5247	0
5248	0
5249	0
5250	0
5251	0
5252	0
5253	0
5254	0
5255	0
5256	0
5257	0
5258	0
5259	0
5260	0
5261	0
5262	0
5263	0
5264	0
5265	0
5266	0
5267	0
5268	0
5269	0
5270	0
5271	0
5272	0
5273	0
5274	0
5275	0
5276	0
5277	0
5278	0
5279	0
5280	0
5281	0
5282	0
5283	0
5284	0
5285	0
5286	0
5287	0
5288	0
5289	0
5290	0
5291	0
5292	0
5293	0
5294	0
5295	0
5296	0
5297	0
5298	0
5299	0
5300	0
5301	0
5302	0
5303	0
5304	0
5305	0
5306	0
5307	0
5308	0
5309	0
5310	0
5311	0
5312	0
5313	0
5314	0
5315	0
5316	0
5317	0
5318	0
5319	0
5320	0
5321	0
5322	0
5323	0
5324	0
5325	0
5326	0
5327	0
5328	0
5329	0
5330	0
5331	0
5332	0
5333	0
5334	0
5335	0
5336	0
5337	0
5338	0
5339	0
5340	0
5341	0
5342	0
5343	0
5344	0
5345	0
5346	0
5347	0
5348	0
5349	0
5350	0
5351	0
5352	0
5353	0
5354	0
5355	0
5356	0
5357	0
5358	0
5359	0
5360	0
5361	0
5362	0
5363	0
5364	0
5365	0
5366	0
5367	0
5368	0
5369	0
5370	0
5371	0
5372	0
5373	0
5374	0
5375	0
5376	0
5377	0
5378	0
5379	0
5380	0
5381	0
5382	0
5383	0
5384	0
5385	0
5386	0
5387	0
5388	0
5389	0
5390	0
5391	0
5392	0
5393	0
5394	0
5395	0
5396	0
5397	0
5398	0
5399	0
5400	0
5401	0
5402	0
5403	0
5404	0
5405	0
5406	0
5407	0
5408	0
5409	0
5410	1
5411	0
5412	0
5413	0
5414	0
5415	0
5416	0
5417	0
5418	0
5419	0
5420	0
5421	0
5422	0
5423	0
5424	0
5425	0
5426	0
5427	0
5428	0
5429	0
5430	0
5431	0
5432	0
5433	0
5434	0
5435	0
5436	0
5437	0
5438	0
5439	0
5440	0
5441	0
5442	0
5443	0
5444	0
5445	0
5446	0
5447	0
5448	0
5449	0
5450	0
5451	0
5452	0
5453	0
5454	0
5455	0
5456	0
5457	0
5458	0
5459	0
5460	0
5461	0
5462	0
5463	0
5464	0
5465	0
5466	0
5467	0
5468	0
5469	0
5470	0
5471	0
5472	0
5473	0
5474	0
5475	0
5476	0
5477	0
5478	0
5479	0
5480	0
5481	0
5482	0
5483	0
5484	0
5485	0
5486	0
5487	0
5488	0
5489	0
5490	0
5491	0
5492	0
5493	0
5494	0
5495	0
5496	0
5497	0
5498	0
5499	0
5500	0
5501	0
5502	0
5503	0
5504	0
5505	0
5506	0
5507	0
5508	0
5509	0
5510	0
5511	0
5512	0
5513	0
5514	0
5515	0
5516	0
5517	0
5518	0
5519	0
5520	0
5521	0
5522	0
5523	0
5524	0
5525	0
5526	0
5527	0
5528	0
5529	1
5530	0
5531	0
5532	0
5533	0
5534	0
5535	0
5536	0
5537	0
5538	0
5539	0
5540	0
5541	0
5542	0
5543	0
5544	0
5545	0
5546	0
5547	0
5548	0
5549	0
5550	0
5551	0
5552	0
5553	0
5554	0
5555	0
5556	0
5557	0
5558	0
5559	0
5560	0
5561	0
5562	0
5563	0
5564	0
5565	0
5566	0
5567	0
5568	0
5569	0
5570	0
5571	0
5572	0
5573	0
5574	0
5575	0
5576	0
5577	0
5578	0
5579	0
5580	0
5581	0
5582	0
5583	0
5584	0
5585	0
5586	0
5587	0
5588	0
5589	0
5590	0
5591	0
5592	0
5593	0
5594	0
5595	0
5596	0
5597	0
5598	0
5599	0
5600	0
5601	0
5602	0
5603	0
5604	0
5605	0
5606	0
5607	1
5608	0
5609	0
5610	0
5611	0
5612	0
5613	0
5614	0
5615	0
5616	0
5617	0
5618	0
5619	0
5620	0
5621	0
5622	0
5623	0
5624	0
5625	0
5626	0
5627	0
5628	0
5629	0
5630	0
5631	0
5632	0
5633	0
5634	0
5635	0
5636	0
5637	0
5638	0
5639	0
5640	0
5641	0
5642	0
5643	0
5644	0
5645	0
5646	0
5647	0
5648	0
5649	0
5650	0
5651	0
5652	0
5653	0
5654	0
5655	0
5656	0
5657	0
5658	0
5659	0
5660	0
5661	0
5662	0
5663	0
5664	0
5665	0
5666	0
5667	0
5668	0
5669	0
5670	0
5671	0
5672	0
5673	0
5674	0
5675	0
5676	0
5677	0
5678	0
5679	0
5680	0
5681	0
5682	0
5683	0
5684	0
5685	0
5686	1
5687	0
5688	0
5689	0
5690	0
5691	0
5692	0
5693	0
5694	0
5695	0
5696	0
5697	0
5698	0
5699	0
5700	0
5701	0
5702	0
5703	0
5704	0
5705	0
5706	0
5707	0
5708	0
5709	0
5710	0
5711	0
5712	0
5713	0
5714	0
5715	0
5716	0
5717	0
5718	0
5719	0
5720	0
5721	0
5722	0
5723	0
5724	0
5725	0
5726	0
5727	0
5728	0
5729	0
5730	0
5731	0
5732	0
5733	1
5734	0
5735	0
5736	0
5737	0
5738	0
5739	0
5740	0
5741	0
5742	0
5743	0
5744	0
5745	1
5746	0
5747	0
5748	0
5749	0
5750	0
5751	0
5752	0
5753	0
5754	0
5755	0
5756	0
5757	0
5758	0
5759	0
5760	0
5761	0
5762	0
5763	0
5764	0
5765	0
5766	0
5767	0
5768	0
5769	0
5770	0
5771	0
5772	0
5773	0
5774	0
5775	0
5776	0
5777	0
5778	0
5779	0
5780	0
5781	0
5782	0
5783	0
5784	0
5785	0
5786	0
5787	0
5788	0
5789	0
5790	0
5791	0
5792	0
5793	0
5794	0
5795	0
5796	0
5797	0
5798	0
5799	0
5800	0
5801	0
5802	0
5803	0
5804	0
5805	0
5806	0
5807	0
5808	0
5809	0
5810	0
5811	0
5812	0
5813	0
5814	0
5815	0
5816	0
5817	0
5818	0
5819	0
5820	0
5821	0
5822	0
5823	1
5824	0
5825	0
5826	0
5827	0
5828	0
5829	0
5830	0
5831	0
5832	0
5833	0
5834	0
5835	0
5836	0
5837	0
5838	0
5839	0
5840	1
5841	0
5842	0
5843	0
5844	0
5845	0
5846	0
5847	0
5848	0
5849	0
5850	0
5851	0
5852	0
5853	0
5854	0
5855	0
5856	0
5857	0
5858	0
5859	0
5860	0
5861	0
5862	1
5863	0
5864	0
5865	0
5866	0
5867	0
5868	0
5869	0
5870	0
5871	0
5872	0
5873	0
5874	0
5875	0
5876	0
5877	0
5878	0
5879	0
5880	0
5881	0
5882	0
5883	0
5884	0
5885	0
5886	0
5887	0
5888	0
5889	0
5890	0
5891	0
5892	0
5893	0
5894	0
5895	1
5896	0
5897	0
5898	0
5899	0
5900	0
5901	0
5902	0
5903	0
5904	0
5905	0
5906	0
5907	0
5908	0
5909	0
5910	0
5911	0
5912	0
5913	0
5914	0
5915	0
5916	0
5917	0
5918	0
5919	0
5920	0
5921	0
5922	0
5923	0
5924	0
5925	0
5926	0
5927	0
5928	0
5929	0
5930	0
5931	0
5932	0
5933	0
5934	0
5935	0
5936	1
5937	0
5938	0
5939	0
5940	0
5941	0
5942	0
5943	0
5944	0
5945	0
5946	0
5947	0
5948	0
5949	0
5950	0
5951	0
5952	0
5953	0
5954	0
5955	0
5956	0
5957	0
5958	0
5959	0
5960	0
5961	0
5962	0
5963	0
5964	0
5965	0
5966	0
5967	0
5968	0
5969	0
5970	0
5971	0
5972	0
5973	0
5974	0
5975	0
5976	0
5977	0
5978	0
5979	0
5980	0
5981	0
5982	0
5983	0
5984	0
5985	0
5986	0
5987	0
5988	0
5989	0
5990	0
5991	0
5992	0
5993	0
5994	1
5995	0
5996	0
5997	0
5998	0
5999	0
6000	0
6001	0
6002	0
6003	0
6004	0
6005	0
6006	0
6007	0
6008	0
6009	0
6010	0
6011	0
6012	0
6013	0
6014	0
6015	0
6016	0
6017	0
6018	0
6019	0
6020	0
6021	0
6022	0
6023	0
6024	0
6025	0
6026	0
6027	0
6028	0
6029	0
6030	0
6031	0
6032	0
6033	0
6034	0
6035	0
6036	0
6037	0
6038	0
6039	0
6040	0
6041	0
6042	0
6043	0
6044	0
6045	0
6046	0
6047	0
6048	0
6049	0
6050	0
6051	0
6052	0
6053	0
6054	0
6055	0
6056	0
6057	0
6058	0
6059	0
6060	0
6061	0
6062	0
6063	0
6064	0
6065	0
6066	0
6067	0
6068	0
6069	0
6070	0
6071	0
6072	0
6073	1
6074	0
6075	0
6076	0
6077	0
6078	0
6079	0
6080	0
6081	0
6082	0
6083	0
6084	0
6085	0
6086	0
6087	0
6088	0
6089	0
6090	0
6091	0
6092	0
6093	0
6094	0
6095	0
6096	0
6097	0
6098	0
6099	0
6100	0
6101	0
6102	0
6103	0
6104	0
6105	0
6106	0
6107	0
6108	0
6109	0
6110	0
6111	0
6112	0
6113	0
6114	0
6115	0
6116	0
6117	0
6118	0
6119	0
6120	0
6121	0
6122	0
6123	0
6124	0
6125	0
6126	0
6127	0
6128	0
6129	0
6130	0
6131	0
6132	0
6133	0
6134	0
6135	0
6136	0
6137	0
6138	0
6139	0
6140	0
6141	0
6142	0
6143	0
6144	0
6145	0
6146	0
6147	0
6148	0
6149	0
6150	0
6151	0
6152	0
6153	0
6154	0
6155	0
6156	0
6157	0
6158	0
6159	0
6160	0
6161	0
6162	0
6163	0
6164	0
6165	1
6166	0
6167	0
6168	0
6169	0
6170	0
6171	0
6172	0
6173	0
6174	0
6175	0
6176	0
6177	0
6178	0
6179	0
6180	0
6181	0
6182	0
6183	0
6184	0
6185	0
6186	0
6187	0
6188	0
6189	0
6190	0
6191	0
6192	0
6193	0
6194	0
6195	0
6196	0
6197	0
6198	0
6199	0
6200	0
6201	0
6202	0
6203	0
6204	0
6205	0
6206	0
6207	0
6208	1
6209	0
6210	0
6211	0
6212	0
6213	0
6214	0
6215	0
6216	0
6217	0
6218	0
6219	0
6220	0
6221	0
6222	0
6223	0
6224	0
6225	0
6226	0
6227	0
6228	0
6229	0
6230	0
6231	0
6232	0
6233	0
6234	0
6235	0
6236	0
6237	0
6238	0
6239	0
6240	0
6241	0
6242	0
6243	0
6244	0
6245	0
6246	0
6247	0
6248	0
6249	0
6250	0
6251	0
6252	0
6253	0
6254	0
6255	0
6256	0
6257	0
6258	0
6259	0
6260	0
6261	0
6262	0
6263	0
6264	0
6265	0
6266	0
6267	0
6268	0
6269	0
6270	0
6271	0
6272	0
6273	0
6274	0
6275	0
6276	0
6277	0
6278	0
6279	0
6280	0
6281	0
6282	0
6283	0
6284	0
6285	0
6286	0
6287	0
6288	0
6289	0
6290	0
6291	0
6292	0
6293	0
6294	0
6295	0
6296	0
6297	0
6298	0
6299	0
6300	0
6301	0
6302	0
6303	0
6304	0
6305	0
6306	0
6307	0
6308	0
6309	0
6310	0
6311	0
6312	0
6313	0
6314	0
6315	0
6316	0
6317	0
6318	0
6319	0
6320	0
6321	0
6322	0
6323	0
6324	0
6325	0
6326	0
6327	0
6328	0
6329	0
6330	0
6331	0
6332	0
6333	0
6334	0
6335	0
6336	0
6337	0
6338	0
6339	0
6340	0
6341	0
6342	0
6343	0
6344	0
6345	1
6346	0
6347	0
6348	0
6349	0
6350	0
6351	0
6352	0
6353	0
6354	0
6355	0
6356	0
6357	0
6358	0
6359	0
6360	0
6361	0
6362	0
6363	0
6364	0
6365	0
6366	0
6367	0
6368	0
6369	0
6370	0
6371	0
6372	0
6373	0
6374	0
6375	0
6376	0
6377	0
6378	0
6379	0
6380	0
6381	0
6382	0
6383	0
6384	0
6385	0
6386	0
6387	0
6388	0
6389	0
6390	0
6391	0
6392	0
6393	0
6394	0
6395	0
6396	0
6397	0
6398	0
6399	0
6400	0
6401	0
6402	0
6403	0
6404	0
6405	0
6406	0
6407	0
6408	0
6409	0
6410	0
6411	0
6412	0
6413	0
6414	0
6415	0
6416	0
6417	0
6418	0
6419	0
6420	0
6421	0
6422	0
6423	0
6424	0
6425	0
6426	0
6427	0
6428	0
6429	0
6430	0
6431	0
6432	0
6433	0
6434	0
6435	0
6436	0
6437	0
6438	0
6439	0
6440	0
6441	0
6442	0
6443	0
6444	0
6445	0
6446	0
6447	0
6448	0
6449	0
6450	0
6451	0
6452	0
6453	0
6454	0
6455	0
6456	0
6457	0
6458	0
6459	0
6460	0
6461	0
6462	0
6463	0
6464	0
6465	0
6466	0
6467	0
6468	0
6469	0
6470	0
6471	0
6472	0
6473	0
6474	0
6475	0
6476	0
6477	0
6478	0
6479	0
6480	0
6481	0
6482	0
6483	0
6484	0
6485	0
6486	0
6487	0
6488	0
6489	0
6490	0
6491	0
6492	0
6493	0
6494	0
6495	0
6496	0
6497	0
6498	0
6499	0
6500	0
6501	0
6502	0
6503	0
6504	0
6505	0
6506	0
6507	0
6508	0
6509	0
6510	0
6511	0
6512	0
6513	0
6514	0
6515	0
6516	0
6517	0
6518	0
6519	0
6520	0
6521	0
6522	0
6523	0
6524	0
6525	0
6526	0
6527	0
6528	0
6529	0
6530	0
6531	0
6532	0
6533	0
6534	0
6535	0
6536	0
6537	0
6538	0
6539	0
6540	0
6541	0
6542	0
6543	0
6544	0
6545	0
6546	0
6547	0
6548	0
6549	0
6550	0
6551	0
6552	0
6553	0
6554	0
6555	0
6556	0
6557	0
6558	0
6559	0
6560	0
6561	0
6562	0
6563	0
6564	0
6565	0
6566	0
6567	0
6568	0
6569	0
6570	0
6571	0
6572	0
6573	0
6574	0
6575	0
6576	0
6577	0
6578	0
6579	0
6580	0
6581	0
6582	0
6583	0
6584	0
6585	0
6586	0
6587	0
6588	0
6589	0
6590	0
6591	0
6592	0
6593	0
6594	0
6595	0
6596	0
6597	0
6598	0
6599	0
6600	0
6601	0
6602	0
6603	0
6604	0
6605	0
6606	0
6607	0
6608	0
6609	0
6610	0
6611	0
6612	0
6613	0
6614	0
6615	0
6616	0
6617	0
6618	0
6619	0
6620	0
6621	0
6622	0
6623	0
6624	0
6625	0
6626	0
6627	0
6628	0
6629	0
6630	0
6631	0
6632	0
6633	0
6634	0
6635	0
6636	0
6637	0
6638	0
6639	0
6640	0
6641	0
6642	0
6643	0
6644	0
6645	0
6646	0
6647	0
6648	0
6649	0
6650	0
6651	0
6652	0
6653	0
6654	0
6655	0
6656	0
6657	0
6658	0
6659	0
6660	0
6661	0
6662	0
6663	0
6664	0
6665	0
6666	0
6667	0
6668	0
6669	0
6670	0
6671	0
6672	0
6673	0
6674	0
6675	0
6676	0
6677	0
6678	0
6679	0
6680	0
6681	1
6682	0
6683	0
6684	0
6685	0
6686	0
6687	0
6688	0
6689	0
6690	0
6691	0
6692	0
6693	0
6694	0
6695	0
6696	0
6697	0
6698	0
6699	0
6700	1
6701	0
6702	0
6703	0
6704	0
6705	0
6706	0
6707	0
6708	0
6709	0
6710	0
6711	0
6712	0
6713	0
6714	1
6715	0
6716	0
6717	0
6718	0
6719	0
6720	0
6721	0
6722	0
6723	0
6724	0
6725	0
6726	0
6727	0
6728	0
6729	0
6730	0
6731	0
6732	0
6733	0
6734	1
6735	0
6736	0
6737	1
6738	0
6739	0
6740	0
6741	0
6742	0
6743	0
6744	0
6745	0
6746	0
6747	0
6748	0
6749	0
6750	0
6751	0
6752	0
6753	0
6754	0
6755	0
6756	0
6757	0
6758	0
6759	0
6760	0
6761	0
6762	0
6763	0
6764	0
6765	0
6766	0
6767	0
6768	0
6769	0
6770	0
6771	0
6772	0
6773	0
6774	0
6775	0
6776	0
6777	0
6778	0
6779	0
6780	0
6781	0
6782	0
6783	0
6784	0
6785	0
6786	0
6787	1
6788	0
6789	0
6790	0
6791	0
6792	0
6793	0
6794	0
6795	0
6796	0
6797	0
6798	0
6799	0
6800	0
6801	0
6802	0
6803	0
6804	0
6805	0
6806	0
6807	0
6808	0
6809	0
6810	0
6811	0
6812	0
6813	0
6814	0
6815	0
6816	0
6817	0
6818	0
6819	0
6820	0
6821	0
6822	0
6823	0
6824	0
6825	0
6826	0
6827	0
6828	0
6829	0
6830	0
6831	0
6832	0
6833	0
6834	0
6835	0
6836	0
6837	0
6838	0
6839	0
6840	1
6841	0
6842	0
6843	0
6844	0
6845	0
6846	0
6847	0
6848	0
6849	0
6850	0
6851	0
6852	0
6853	0
6854	0
6855	0
6856	0
6857	0
6858	0
6859	0
6860	0
6861	0
6862	0
6863	0
6864	0
6865	0
6866	0
6867	0
6868	0
6869	0
6870	0
6871	0
6872	0
6873	0
6874	0
6875	0
6876	0
6877	0
6878	0
6879	0
6880	0
6881	0
6882	0
6883	0
6884	0
6885	0
6886	0
6887	0
6888	0
6889	0
6890	0
6891	0
6892	0
6893	0
6894	0
6895	0
6896	0
6897	0
6898	0
6899	0
6900	0
6901	0
6902	0
6903	0
6904	0
6905	0
6906	0
6907	0
6908	0
6909	0
6910	0
6911	0
6912	0
6913	0
6914	0
6915	0
6916	0
6917	0
6918	0
6919	0
6920	0
6921	0
6922	0
6923	0
6924	0
6925	0
6926	0
6927	0
6928	0
6929	0
6930	0
6931	0
6932	0
6933	0
6934	0
6935	0
6936	0
6937	0
6938	0
6939	0
6940	0
6941	0
6942	0
6943	0
6944	0
6945	0
6946	0
6947	0
6948	0
6949	0
6950	0
6951	0
6952	0
6953	0
6954	0
6955	0
6956	0
6957	0
6958	0
6959	0
6960	0
6961	0
6962	0
6963	0
6964	0
6965	0
6966	0
6967	0
6968	0
6969	0
6970	0
6971	0
6972	0
6973	0
6974	0
6975	0
6976	0
6977	0
6978	0
6979	0
6980	0
6981	0
6982	0
6983	0
6984	0
6985	0
6986	0
6987	0
6988	0
6989	0
6990	0
6991	0
6992	0
6993	0
6994	0
6995	0
6996	1
6997	0
6998	0
6999	0
7000	0
7001	0
7002	0
7003	0
7004	0
7005	0
7006	0
7007	0
7008	0
7009	0
7010	0
7011	0
7012	0
7013	0
7014	0
7015	0
7016	0
7017	0
7018	0
7019	0
7020	0
7021	0
7022	0
7023	0
7024	0
7025	0
7026	0
7027	0
7028	0
7029	0
7030	0
7031	0
7032	0
7033	0
7034	0
7035	0
7036	0
7037	0
7038	0
7039	0
7040	0
7041	0
7042	0
7043	0
7044	0
7045	0
7046	0
7047	0
7048	0
7049	0
7050	0
7051	0
7052	0
7053	0
7054	0
7055	0
7056	0
7057	0
7058	0
7059	0
7060	0
7061	0
7062	0
7063	0
7064	0
7065	0
7066	0
7067	0
7068	0
7069	0
7070	0
7071	0
7072	0
7073	0
7074	0
7075	0
7076	0
7077	0
7078	0
7079	1
7080	0
7081	0
7082	0
7083	0
7084	0
7085	0
7086	0
7087	0
7088	0
7089	0
7090	0
7091	0
7092	0
7093	0
7094	0
7095	0
7096	0
7097	0
7098	0
7099	0
7100	0
7101	0
7102	0
7103	0
7104	0
7105	0
7106	0
7107	0
7108	0
7109	0
7110	0
7111	0
7112	0
7113	0
7114	0
7115	0
7116	0
7117	0
7118	0
7119	0
7120	0
7121	0
7122	0
7123	0
7124	0
7125	0
7126	0
7127	0
7128	0
7129	0
7130	0
7131	0
7132	0
7133	0
7134	0
7135	0
7136	0
7137	0
7138	0
7139	0
7140	0
7141	0
7142	0
7143	0
7144	0
7145	0
7146	0
7147	0
7148	0
7149	0
7150	0
7151	0
7152	0
7153	0
7154	0
7155	0
7156	0
7157	0
7158	0
7159	0
7160	0
7161	0
7162	0
7163	0
7164	0
7165	0
7166	0
7167	0
7168	0
7169	0
7170	0
7171	0
7172	0
7173	0
7174	0
7175	0
7176	0
7177	0
7178	0
7179	0
7180	0
7181	0
7182	0
7183	0
7184	0
7185	0
7186	0
7187	0
7188	0
7189	0
7190	0
7191	0
7192	0
7193	0
7194	0
7195	0
7196	0
7197	0
7198	0
7199	0
7200	0
7201	0
7202	0
7203	0
7204	0
7205	0
7206	0
7207	0
7208	0
7209	0
7210	0
7211	0
7212	0
7213	0
7214	0
7215	0
7216	0
7217	0
7218	0
7219	0
7220	0
7221	0
7222	0
7223	0
7224	0
7225	0
7226	0
7227	0
7228	0
7229	0
7230	0
7231	0
7232	0
7233	0
7234	0
7235	0
7236	0
7237	0
7238	0
7239	0
7240	0
7241	0
7242	0
7243	0
7244	0
7245	0
7246	0
7247	0
7248	0
7249	0
7250	1
7251	0
7252	0
7253	0
7254	0
7255	0
7256	0
7257	0
7258	0
7259	0
7260	0
7261	0
7262	0
7263	0
7264	0
7265	0
7266	0
7267	0
7268	0
7269	0
7270	0
7271	0
7272	0
7273	0
7274	0
7275	0
7276	0
7277	0
7278	0
7279	0
7280	0
7281	0
7282	0
7283	0
7284	0
7285	0
7286	0
7287	0
7288	0
7289	0
7290	0
7291	0
7292	0
7293	0
7294	0
7295	0
7296	0
7297	0
7298	0
7299	0
7300	0
7301	0
7302	0
7303	0
7304	0
7305	0
7306	0
7307	0
7308	0
7309	0
7310	0
7311	0
7312	0
7313	0
7314	0
7315	0
7316	0
7317	0
7318	0
7319	0
7320	0
7321	0
7322	0
7323	0
7324	0
7325	0
7326	0
7327	0
7328	0
7329	0
7330	0
7331	0
7332	0
7333	0
7334	0
7335	0
7336	0
7337	0
7338	0
7339	0
7340	0
7341	0
7342	0
7343	0
7344	0
7345	0
7346	0
7347	0
7348	0
7349	0
7350	0
7351	0
7352	0
7353	0
7354	0
7355	0
7356	0
7357	0
7358	0
7359	0
7360	0
7361	0
7362	0
7363	0
7364	0
7365	0
7366	0
7367	0
7368	0
7369	0
7370	0
7371	0
7372	0
7373	0
7374	0
7375	0
7376	0
7377	0
7378	0
7379	0
7380	0
7381	0
7382	0
7383	0
7384	0
7385	0
7386	0
7387	0
7388	0
7389	0
7390	0
7391	0
7392	0
7393	0
7394	0
7395	0
7396	0
7397	0
7398	0
7399	0
7400	0
7401	0
7402	0
7403	0
7404	0
7405	0
7406	0
7407	0
7408	0
7409	0
7410	0
7411	0
7412	0
7413	0
7414	0
7415	0
7416	0
7417	0
7418	0
7419	0
7420	0
7421	0
7422	0
7423	0
7424	0
7425	0
7426	0
7427	0
7428	0
7429	0
7430	0
7431	0
7432	0
7433	0
7434	0
7435	0
7436	0
7437	0
7438	0
7439	0
7440	0
7441	0
7442	0
7443	0
7444	0
7445	0
7446	0
7447	0
7448	0
7449	0
7450	0
7451	0
7452	0
7453	0
7454	0
7455	0
7456	0
7457	0
7458	0
7459	0
7460	0
7461	0
7462	0
7463	0
7464	0
7465	0
7466	0
7467	0
7468	0
7469	0
7470	0
7471	0
7472	0
7473	0
7474	0
7475	0
7476	0
7477	0
7478	0
7479	1
7480	0
7481	0
7482	0
7483	0
7484	0
7485	0
7486	0
7487	0
7488	0
7489	0
7490	0
7491	0
7492	0
7493	0
7494	0
7495	0
7496	0
7497	0
7498	0
7499	0
7500	0
7501	0
7502	0
7503	0
7504	0
7505	0
7506	0
7507	0
7508	0
7509	0
7510	0
7511	0
7512	0
7513	0
7514	0
7515	0
7516	0
7517	0
7518	0
7519	0
7520	0
7521	0
7522	0
7523	0
7524	0
7525	0
7526	0
7527	0
7528	0
7529	0
7530	0
7531	0
7532	0
7533	0
7534	0
7535	0
7536	0
7537	0
7538	0
7539	0
7540	0
7541	0
7542	0
7543	0
7544	0
7545	0
7546	0
7547	0
7548	0
7549	0
7550	0
7551	0
7552	0
7553	0
7554	0
7555	0
7556	0
7557	0
7558	0
7559	0
7560	0
7561	0
7562	0
7563	0
7564	0
7565	0
7566	0
7567	0
7568	0
7569	0
7570	0
7571	0
7572	0
7573	0
7574	0
7575	0
7576	0
7577	0
7578	0
7579	0
7580	0
7581	0
7582	0
7583	0
7584	0
7585	0
7586	0
7587	0
7588	0
7589	0
7590	0
7591	0
7592	0
7593	0
7594	0
7595	0
7596	0
7597	0
7598	0
7599	0
7600	0
7601	0
7602	0
7603	0
7604	0
7605	0
7606	0
7607	0
7608	0
7609	0
7610	0
7611	0
7612	0
7613	0
7614	0
7615	0
7616	0
7617	0
7618	0
7619	0
7620	0
7621	0
7622	0
7623	0
7624	0
7625	0
7626	0
7627	0
7628	0
7629	0
7630	0
7631	0
7632	0
7633	0
7634	0
7635	0
7636	0
7637	0
7638	0
7639	0
7640	0
7641	0
7642	0
7643	0
7644	0
7645	0
7646	0
7647	0
7648	0
7649	0
7650	0
7651	0
7652	0
7653	0
7654	0
7655	0
7656	0
7657	0
7658	0
7659	0
7660	0
7661	0
7662	0
7663	0
7664	0
7665	0
7666	0
7667	0
7668	0
7669	0
7670	0
7671	0
7672	0
7673	0
7674	0
7675	0
7676	0
7677	0
7678	0
7679	0
7680	0
7681	0
7682	0
7683	0
7684	0
7685	0
7686	0
7687	0
7688	0
7689	0
7690	0
7691	0
7692	0
7693	0
7694	0
7695	0
7696	0
7697	0
7698	0
7699	0
7700	0
7701	0
7702	0
7703	0
7704	0
7705	0
7706	0
7707	0
7708	0
7709	0
7710	0
7711	0
7712	0
7713	0
7714	0
7715	0
7716	0
7717	0
7718	0
7719	0
7720	0
7721	0
7722	0
7723	0
7724	0
7725	0
7726	0
7727	0
7728	0
7729	0
7730	0
7731	0
7732	0
7733	0
7734	0
7735	0
7736	0
7737	0
7738	0
7739	0
7740	0
7741	0
7742	0
7743	0
7744	0
7745	0
7746	0
7747	0
7748	0
7749	0
7750	0
7751	0
7752	0
7753	0
7754	0
7755	0
7756	0
7757	0
7758	0
7759	0
7760	0
7761	0
7762	0
7763	0
7764	0
7765	0
7766	0
7767	0
7768	0
7769	0
7770	0
7771	0
7772	0
7773	0
7774	0
7775	0
7776	0
7777	0
7778	0
7779	0
7780	0
7781	0
7782	0
7783	0
7784	0
7785	0
7786	0
7787	0
7788	0
7789	0
7790	0
7791	0
7792	0
7793	0
7794	0
7795	0
7796	0
7797	0
7798	0
7799	0
7800	0
7801	0
7802	0
7803	0
7804	0
7805	0
7806	0
7807	0
7808	0
7809	0
7810	0
7811	0
7812	0
7813	0
7814	0
7815	0
7816	0
7817	0
7818	0
7819	0
7820	0
7821	0
7822	0
7823	0
7824	0
7825	0
7826	0
7827	0
7828	0
7829	0
7830	0
7831	0
7832	0
7833	0
7834	0
7835	0
7836	0
7837	0
7838	0
7839	0
7840	0
7841	0
7842	0
7843	0
7844	0
7845	0
7846	0
7847	0
7848	0
7849	0
7850	0
7851	0
7852	0
7853	0
7854	0
7855	0
7856	0
7857	0
7858	0
7859	0
7860	0
7861	0
7862	0
7863	0
7864	0
7865	0
7866	0
7867	0
7868	0
7869	0
7870	0
7871	0
7872	0
7873	0
7874	0
7875	0
7876	0
7877	0
7878	0
7879	0
7880	0
7881	0
7882	0
7883	0
7884	0
7885	0
7886	0
7887	0
7888	0
7889	0
7890	0
7891	0
7892	0
7893	0
7894	0
7895	0
7896	0
7897	0
7898	0
7899	0
7900	0
7901	0
7902	0
7903	0
7904	0
7905	0
7906	0
7907	0
7908	0
7909	0
7910	0
7911	0
7912	0
7913	0
7914	0
7915	0
7916	0
7917	0
7918	0
7919	0
7920	0
7921	0
7922	0
7923	0
7924	0
7925	0
7926	0
7927	0
7928	0
7929	0
7930	0
7931	0
7932	0
7933	0
7934	0
7935	0
7936	0
7937	0
7938	0
7939	0
7940	0
7941	0
7942	0
7943	0
7944	0
7945	0
7946	0
7947	0
7948	0
7949	0
7950	0
7951	0
7952	0
7953	0
7954	0
7955	0
7956	0
7957	0
7958	0
7959	0
7960	0
7961	0
7962	0
7963	0
7964	0
7965	0
7966	0
7967	0
7968	0
7969	0
7970	0
7971	0
7972	0
7973	0
7974	0
7975	0
7976	0
7977	0
7978	0
7979	0
7980	0
7981	0
7982	0
7983	0
7984	0
7985	0
7986	0
7987	0
7988	0
7989	0
7990	0
7991	0
7992	0
7993	0
7994	0
7995	0
7996	0
7997	0
7998	0
7999	0
8000	0
8001	0
8002	0
8003	0
8004	0
8005	0
8006	0
8007	0
8008	0
8009	0
8010	0
8011	0
8012	0
8013	0
8014	0
8015	0
8016	0
8017	0
8018	0
8019	0
8020	0
8021	0
8022	0
8023	0
8024	0
8025	0
8026	0
8027	0
8028	0
8029	0
8030	0
8031	0
8032	0
8033	0
8034	0
8035	0
8036	0
8037	0
8038	0
8039	0
8040	0
8041	0
8042	0
8043	0
8044	0
8045	0
8046	0
8047	0
8048	0
8049	0
8050	0
8051	0
8052	0
8053	0
8054	0
8055	0
8056	0
8057	0
8058	0
8059	0
8060	0
8061	0
8062	0
8063	0
8064	0
8065	0
8066	0
8067	0
8068	0
8069	0
8070	0
8071	0
8072	0
8073	0
8074	0
8075	0
8076	0
8077	0
8078	0
8079	0
8080	0
8081	0
8082	0
8083	0
8084	0
8085	0
8086	0
8087	0
8088	0
8089	0
8090	0
8091	0
8092	0
8093	0
8094	0
8095	0
8096	0
8097	0
8098	0
8099	0
8100	0
8101	0
8102	0
8103	0
8104	0
8105	0
8106	0
8107	0
8108	0
8109	0
8110	0
8111	0
8112	0
8113	0
8114	0
8115	0
8116	0
8117	0
8118	0
8119	0
8120	0
8121	0
8122	0
8123	0
8124	0
8125	0
8126	0
8127	0
8128	0
8129	0
8130	0
8131	0
8132	0
8133	0
8134	0
8135	0
8136	0
8137	0
8138	0
8139	0
8140	0
8141	0
8142	0
8143	0
8144	0
8145	0
8146	0
8147	0
8148	0
8149	0
8150	0
8151	0
8152	0
8153	0
8154	0
8155	0
8156	0
8157	0
8158	0
8159	0
8160	0
8161	0
8162	0
8163	0
8164	0
8165	0
8166	0
8167	0
8168	0
8169	0
8170	0
8171	0
8172	0
8173	0
8174	0
8175	0
8176	0
8177	0
8178	0
8179	0
8180	0
8181	0
8182	0
8183	0
8184	0
8185	0
8186	0
8187	0
8188	0
8189	0
8190	0
8191	0
8192	0
8193	0
8194	0
8195	0
8196	0
8197	0
8198	0
8199	0
8200	0
8201	0
8202	0
8203	0
8204	0
8205	0
8206	0
8207	0
8208	0
8209	0
8210	0
8211	0
8212	0
8213	0
8214	0
8215	0
8216	0
8217	0
8218	0
8219	0
8220	0
8221	0
8222	0
8223	0
8224	0
8225	0
8226	0
8227	0
8228	0
8229	0
8230	0
8231	0
8232	0
8233	0
8234	0
8235	0
8236	0
8237	0
8238	0
8239	0
8240	0
8241	0
8242	0
8243	0
8244	0
8245	0
8246	0
8247	0
8248	0
8249	0
8250	0
8251	0
8252	0
8253	0
8254	0
8255	0
8256	0
8257	0
8258	0
8259	0
8260	0
8261	0
8262	0
8263	0
8264	0
8265	0
8266	0
8267	0
8268	0
8269	0
8270	0
8271	0
8272	0
8273	0
8274	0
8275	0
8276	0
8277	0
8278	0
8279	0
8280	0
8281	0
8282	0
8283	0
8284	0
8285	0
8286	0
8287	0
8288	0
8289	0
8290	0
8291	0
8292	0
8293	0
8294	0
8295	0
8296	0
8297	0
8298	0
8299	0
8300	0
8301	0
8302	0
8303	0
8304	0
8305	0
8306	0
8307	0
8308	0
8309	0
8310	0
8311	0
8312	0
8313	0
8314	0
8315	0
8316	0
8317	0
8318	0
8319	0
8320	0
8321	1
8322	0
8323	0
8324	0
8325	0
8326	0
8327	0
8328	0
8329	0
8330	0
8331	0
8332	0
8333	0
8334	0
8335	0
8336	0
8337	0
8338	0
8339	0
8340	0
8341	0
8342	0
8343	0
8344	0
8345	0
8346	0
8347	0
8348	0
8349	0
8350	0
8351	0
8352	0
8353	0
8354	0
8355	0
8356	0
8357	0
8358	0
8359	0
8360	0
8361	0
8362	0
8363	0
8364	0
8365	0
8366	0
8367	0
8368	0
8369	0
8370	0
8371	0
8372	0
8373	0
8374	0
8375	0
8376	0
8377	0
8378	0
8379	0
8380	0
8381	0
8382	0
8383	0
8384	0
8385	1
8386	0
8387	0
8388	0
8389	0
8390	0
8391	0
8392	0
8393	0
8394	0
8395	0
8396	0
8397	0
8398	0
8399	0
8400	0
8401	0
8402	0
8403	0
8404	0
8405	0
8406	0
8407	0
8408	0
8409	0
8410	0
8411	0
8412	0
8413	0
8414	0
8415	0
8416	0
8417	0
8418	0
8419	0
8420	0
8421	0
8422	0
8423	0
8424	0
8425	0
8426	0
8427	0
8428	0
8429	0
8430	0
8431	0
8432	0
8433	0
8434	0
8435	0
8436	0
8437	0
8438	0
8439	0
8440	0
8441	0
8442	0
8443	0
8444	0
8445	0
8446	0
8447	0
8448	0
8449	0
8450	0
8451	0
8452	0
8453	0
8454	0
8455	0
8456	0
8457	0
8458	0
8459	0
8460	0
8461	0
8462	0
8463	0
8464	0
8465	0
8466	0
8467	0
8468	0
8469	0
8470	0
8471	0
8472	0
8473	0
8474	0
8475	0
8476	0
8477	0
8478	0
8479	0
8480	0
8481	0
8482	0
8483	0
8484	0
8485	0
8486	0
8487	0
8488	0
8489	0
8490	0
8491	0
8492	0
8493	0
8494	0
8495	0
8496	0
8497	0
8498	0
8499	0
8500	0
8501	0
8502	0
8503	0
8504	0
8505	0
8506	0
8507	0
8508	0
8509	0
8510	0
8511	0
8512	0
8513	0
8514	0
8515	0
8516	0
8517	0
8518	0
8519	0
8520	0
8521	0
8522	0
8523	0
8524	0
8525	0
8526	0
8527	0
8528	0
8529	0
8530	0
8531	0
8532	0
8533	0
8534	0
8535	0
8536	0
8537	0
8538	0
8539	0
8540	0
8541	0
8542	0
8543	0
8544	0
8545	0
8546	0
8547	0
8548	0
8549	0
8550	0
8551	0
8552	0
8553	0
8554	0
8555	0
8556	0
8557	0
8558	0
8559	0
8560	0
8561	0
8562	0
8563	0
8564	0
8565	0
8566	0
8567	0
8568	0
8569	0
8570	0
8571	0
8572	0
8573	0
8574	0
8575	0
8576	0
8577	0
8578	0
8579	0
8580	0
8581	0
8582	0
8583	0
8584	0
8585	0
8586	0
8587	0
8588	0
8589	0
8590	0
8591	0
8592	0
8593	0
8594	0
8595	0
8596	0
8597	0
8598	0
8599	0
8600	0
8601	0
8602	0
8603	0
8604	0
8605	0
8606	0
8607	0
8608	0
8609	0
8610	0
8611	0
8612	0
8613	0
8614	0
8615	0
8616	0
8617	0
8618	0
8619	0
8620	0
8621	0
8622	0
8623	0
8624	0
8625	0
8626	0
8627	0
8628	0
8629	0
8630	0
8631	0
8632	0
8633	0
8634	0
8635	0
8636	0
8637	0
8638	0
8639	0
8640	0
8641	0
8642	0
8643	0
8644	0
8645	0
8646	0
8647	0
8648	0
8649	0
8650	0
8651	0
8652	0
8653	0
8654	0
8655	0
8656	0
8657	0
8658	0
8659	0
8660	0
8661	0
8662	0
8663	0
8664	0
8665	0
8666	0
8667	0
8668	0
8669	0
8670	0
8671	0
8672	0
8673	0
8674	0
8675	0
8676	0
8677	0
8678	0
8679	0
8680	0
8681	0
8682	0
8683	0
8684	0
8685	0
8686	0
8687	0
8688	0
8689	0
8690	0
8691	0
8692	0
8693	0
8694	0
8695	0
8696	0
8697	0
8698	0
8699	0
8700	0
8701	0
8702	0
8703	0
8704	0
8705	0
8706	0
8707	0
8708	0
8709	0
8710	0
8711	0
8712	0
8713	0
8714	0
8715	0
8716	0
8717	0
8718	0
8719	0
8720	0
8721	0
8722	0
8723	0
8724	0
8725	0
8726	0
8727	0
8728	0
8729	0
8730	0
8731	0
8732	0
8733	0
8734	0
8735	0
8736	0
8737	0
8738	0
8739	0
8740	0
8741	0
8742	0
8743	0
8744	0
8745	0
8746	0
8747	0
8748	0
8749	0
8750	0
8751	0
8752	0
8753	0
8754	0
8755	0
8756	0
8757	0
8758	0
8759	0
8760	0
8761	0
8762	0
8763	0
8764	0
8765	0
8766	0
8767	0
8768	0
8769	0
8770	0
8771	0
8772	0
8773	0
8774	0
8775	0
8776	0
8777	0
8778	0
8779	0
8780	0
8781	0
8782	0
8783	0
8784	0
8785	0
8786	0
8787	0
8788	0
8789	0
8790	0
8791	0
8792	0
8793	0
8794	0
8795	0
8796	0
8797	0
8798	0
8799	0
8800	0
8801	0
8802	0
8803	0
8804	0
8805	0
8806	0
8807	0
8808	0
8809	0
8810	0
8811	0
8812	0
8813	0
8814	0
8815	0
8816	0
8817	0
8818	0
8819	0
8820	0
8821	0
8822	0
8823	0
8824	0
8825	0
8826	0
8827	0
8828	0
8829	0
8830	0
8831	0
8832	0
8833	0
8834	0
8835	0
8836	0
8837	0
8838	0
8839	0
8840	0
8841	0
8842	0
8843	0
8844	0
8845	0
8846	0
8847	0
8848	0
8849	0
8850	0
8851	0
8852	0
8853	0
8854	0
8855	0
8856	0
8857	0
8858	0
8859	0
8860	0
8861	0
8862	0
8863	0
8864	0
8865	0
8866	0
8867	0
8868	0
8869	0
8870	0
8871	0
8872	0
8873	0
8874	0
8875	0
8876	0
8877	1
8878	0
8879	0
8880	0
8881	0
8882	0
8883	0
8884	0
8885	0
8886	0
8887	0
8888	0
8889	0
8890	0
8891	0
8892	0
8893	0
8894	0
8895	0
8896	0
8897	0
8898	0
8899	0
8900	0
8901	0
8902	0
8903	0
8904	0
8905	0
8906	0
8907	0
8908	0
8909	0
8910	0
8911	0
8912	0
8913	0
8914	0
8915	0
8916	0
8917	0
8918	0
8919	0
8920	0
8921	0
8922	0
8923	0
8924	0
8925	0
8926	0
8927	0
8928	0
8929	0
8930	0
8931	0
8932	0
8933	0
8934	0
8935	0
8936	0
8937	0
8938	0
8939	0
8940	0
8941	0
8942	0
8943	0
8944	0
8945	0
8946	0
8947	0
8948	0
8949	0
8950	0
8951	0
8952	0
8953	0
8954	0
8955	0
8956	0
8957	0
8958	0
8959	0
8960	0
8961	0
8962	0
8963	0
8964	0
8965	0
8966	0
8967	0
8968	0
8969	0
8970	0
8971	0
8972	0
8973	0
8974	0
8975	0
8976	0
8977	0
8978	0
8979	0
8980	0
8981	0
8982	0
8983	0
8984	0
8985	0
8986	0
8987	0
8988	0
8989	0
8990	0
8991	0
8992	0
8993	0
8994	0
8995	0
8996	0
8997	0
8998	0
8999	0
9000	0
9001	0
9002	0
9003	0
9004	0
9005	0
9006	0
9007	0
9008	0
9009	0
9010	0
9011	0
9012	0
9013	0
9014	0
9015	0
9016	0
9017	0
9018	0
9019	0
9020	0
9021	0
9022	0
9023	0
9024	0
9025	0
9026	0
9027	0
9028	0
9029	0
9030	0
9031	0
9032	0
9033	0
9034	0
9035	0
9036	0
9037	0
9038	0
9039	0
9040	0
9041	0
9042	0
9043	0
9044	0
9045	0
9046	0
9047	0
9048	0
9049	0
9050	0
9051	0
9052	0
9053	0
9054	0
9055	0
9056	0
9057	0
9058	0
9059	0
9060	0
9061	0
9062	1
9063	0
9064	0
9065	0
9066	0
9067	0
9068	0
9069	0
9070	0
9071	0
9072	0
9073	0
9074	0
9075	0
9076	0
9077	0
9078	0
9079	0
9080	0
9081	0
9082	0
9083	0
9084	0
9085	0
9086	0
9087	0
9088	0
9089	0
9090	0
9091	0
9092	0
9093	0
9094	0
9095	0
9096	0
9097	0
9098	0
9099	0
9100	0
9101	0
9102	0
9103	0
9104	0
9105	0
9106	0
9107	0
9108	0
9109	0
9110	0
9111	0
9112	0
9113	0
9114	0
9115	0
9116	0
9117	0
9118	0
9119	0
9120	0
9121	0
9122	0
9123	0
9124	0
9125	0
9126	0
9127	0
9128	0
9129	0
9130	0
9131	0
9132	0
9133	0
9134	0
9135	0
9136	0
9137	0
9138	0
9139	0
9140	0
9141	0
9142	0
9143	0
9144	0
9145	0
9146	0
9147	0
9148	0
9149	0
9150	0
9151	0
9152	0
9153	0
9154	0
9155	0
9156	0
9157	0
9158	0
9159	0
9160	0
9161	0
9162	0
9163	0
9164	0
9165	0
9166	0
9167	0
9168	0
9169	0
9170	0
9171	0
9172	0
9173	0
9174	0
9175	0
9176	0
9177	0
9178	0
9179	0
9180	0
9181	0
9182	0
9183	0
9184	0
9185	0
9186	0
9187	0
9188	0
9189	0
9190	0
9191	0
9192	0
9193	0
9194	0
9195	0
9196	0
9197	0
9198	0
9199	0
9200	0
9201	0
9202	0
9203	0
9204	0
9205	0
9206	0
9207	0
9208	0
9209	0
9210	0
9211	0
9212	0
9213	0
9214	0
9215	0
9216	0
9217	0
9218	0
9219	0
9220	0
9221	0
9222	0
9223	0
9224	0
9225	0
9226	0
9227	0
9228	0
9229	0
9230	0
9231	0
9232	0
9233	0
9234	0
9235	0
9236	0
9237	0
9238	0
9239	0
9240	0
9241	0
9242	0
9243	0
9244	0
9245	0
9246	0
9247	0
9248	0
9249	0
9250	0
9251	0
9252	0
9253	0
9254	0
9255	0
9256	0
9257	0
9258	0
9259	0
9260	0
9261	0
9262	0
9263	0
9264	0
9265	0
9266	0
9267	0
9268	0
9269	0
9270	0
9271	0
9272	0
9273	0
9274	0
9275	0
9276	0
9277	0
9278	0
9279	0
9280	0
9281	0
9282	0
9283	0
9284	0
9285	0
9286	0
9287	0
9288	0
9289	0
9290	0
9291	0
9292	0
9293	0
9294	0
9295	0
9296	0
9297	0
9298	0
9299	0
9300	0
9301	0
9302	0
9303	0
9304	0
9305	0
9306	0
9307	0
9308	0
9309	0
9310	0
9311	0
9312	0
9313	0
9314	0
9315	0
9316	0
9317	0
9318	0
9319	0
9320	0
9321	0
9322	0
9323	0
9324	0
9325	0
9326	0
9327	0
9328	0
9329	0
9330	0
9331	0
9332	0
9333	0
9334	0
9335	0
9336	0
9337	0
9338	0
9339	0
9340	0
9341	0
9342	0
9343	0
9344	0
9345	0
9346	0
9347	0
9348	0
9349	0
9350	0
9351	0
9352	0
9353	0
9354	0
9355	0
9356	0
9357	0
9358	0
9359	0
9360	0
9361	0
9362	0
9363	0
9364	0
9365	0
9366	0
9367	0
9368	0
9369	0
9370	0
9371	0
9372	0
9373	0
9374	0
9375	0
9376	0
9377	0
9378	0
9379	0
9380	0
9381	0
9382	0
9383	0
9384	0
9385	0
9386	0
9387	0
9388	0
9389	0
9390	0
9391	0
9392	0
9393	0
9394	0
9395	0
9396	0
9397	0
9398	0
9399	0
9400	0
9401	0
9402	0
9403	0
9404	0
9405	0
9406	0
9407	0
9408	0
9409	0
9410	0
9411	0
9412	0
9413	0
9414	0
9415	0
9416	0
9417	0
9418	0
9419	0
9420	0
9421	0
9422	0
9423	0
9424	0
9425	0
9426	0
9427	0
9428	0
9429	0
9430	0
9431	0
9432	0
9433	0
9434	0
9435	0
9436	0
9437	0
9438	0
9439	0
9440	0
9441	0
9442	0
9443	0
9444	0
9445	0
9446	0
9447	0
9448	0
9449	0
9450	0
9451	0
9452	0
9453	0
9454	0
9455	0
9456	0
9457	0
9458	0
9459	0
9460	0
9461	0
9462	0
9463	0
9464	0
9465	0
9466	0
9467	0
9468	0
9469	0
9470	0
9471	0
9472	0
9473	0
9474	0
9475	0
9476	0
9477	0
9478	0
9479	0
9480	0
9481	0
9482	0
9483	0
9484	0
9485	0
9486	0
9487	0
9488	0
9489	0
9490	0
9491	0
9492	0
9493	0
9494	0
9495	0
9496	0
9497	0
9498	0
9499	0
9500	0
9501	0
9502	0
9503	0
9504	0
9505	0
9506	0
9507	0
9508	0
9509	0
9510	0
9511	0
9512	0
9513	0
9514	0
9515	0
9516	0
9517	0
9518	0
9519	0
9520	0
9521	0
9522	0
9523	0
9524	0
9525	0
9526	0
9527	0
9528	0
9529	0
9530	0
9531	0
9532	0
9533	0
9534	0
9535	0
9536	0
9537	0
9538	0
9539	0
9540	0
9541	0
9542	0
9543	0
9544	0
9545	0
9546	0
9547	0
9548	0
9549	0
9550	0
9551	0
9552	0
9553	0
9554	0
9555	0
9556	0
9557	0
9558	0
9559	0
9560	0
9561	0
9562	0
9563	0
9564	0
9565	0
9566	0
9567	0
9568	0
9569	0
9570	0
9571	0
9572	0
9573	0
9574	0
9575	0
9576	0
9577	0
9578	0
9579	0
9580	0
9581	0
9582	0
9583	0
9584	0
9585	0
9586	0
9587	0
9588	0
9589	0
9590	0
9591	0
9592	0
9593	0
9594	0
9595	0
9596	0
9597	0
9598	0
9599	0
9600	0
9601	0
9602	0
9603	0
9604	0
9605	0
9606	0
9607	0
9608	0
9609	0
9610	0
9611	0
9612	0
9613	0
9614	0
9615	0
9616	0
9617	0
9618	0
9619	0
9620	0
9621	0
9622	0
9623	0
9624	0
9625	0
9626	0
9627	0
9628	0
9629	0
9630	0
9631	0
9632	0
9633	0
9634	0
9635	0
9636	0
9637	0
9638	0
9639	0
9640	0
9641	0
9642	0
9643	0
9644	0
9645	0
9646	0
9647	0
9648	0
9649	0
9650	0
9651	0
9652	0
9653	0
9654	0
9655	0
9656	0
9657	0
9658	0
9659	0
9660	0
9661	0
9662	0
9663	0
9664	0
9665	0
9666	0
9667	0
9668	0
9669	0
9670	0
9671	0
9672	0
9673	0
9674	0
9675	0
9676	0
9677	0
9678	0
9679	0
9680	0
9681	0
9682	0
9683	0
9684	0
9685	0
9686	0
9687	0
9688	0
9689	0
9690	0
9691	0
9692	0
9693	0
9694	0
9695	0
9696	0
9697	0
9698	0
9699	0
9700	0
9701	0
9702	0
9703	0
9704	0
9705	0
9706	0
9707	0
9708	0
9709	0
9710	0
9711	0
9712	0
9713	0
9714	0
9715	0
9716	0
9717	0
9718	0
9719	0
9720	0
9721	0
9722	0
9723	0
9724	0
9725	0
9726	0
9727	0
9728	0
9729	0
9730	0
9731	0
9732	0
9733	0
9734	0
9735	0
9736	0
9737	0
9738	0
9739	1
9740	0
9741	0
9742	0
9743	0
9744	0
9745	0
9746	0
9747	0
9748	0
9749	0
9750	0
9751	0
9752	0
9753	0
9754	0
9755	0
9756	0
9757	0
9758	0
9759	0
9760	0
9761	0
9762	0
9763	0
9764	1
9765	0
9766	0
9767	0
9768	0
9769	0
9770	0
9771	0
9772	0
9773	0
9774	0
9775	0
9776	0
9777	0
9778	0
9779	0
9780	0
9781	0
9782	0
9783	0
9784	0
9785	0
9786	0
9787	0
9788	0
9789	0
9790	0
9791	0
9792	0
9793	0
9794	0
9795	0
9796	0
9797	0
9798	0
9799	0
9800	0
9801	0
9802	0
9803	0
9804	0
9805	0
9806	0
9807	0
9808	0
9809	0
9810	0
9811	0
9812	0
9813	0
9814	0
9815	0
9816	0
9817	0
9818	0
9819	0
9820	1
9821	0
9822	0
9823	0
9824	0
9825	0
9826	0
9827	0
9828	0
9829	0
9830	0
9831	0
9832	0
9833	0
9834	0
9835	0
9836	0
9837	0
9838	0
9839	0
9840	0
9841	0
9842	0
9843	0
9844	0
9845	0
9846	0
9847	0
9848	0
9849	0
9850	0
9851	0
9852	0
9853	0
9854	0
9855	0
9856	0
9857	0
9858	0
9859	0
9860	0
9861	0
9862	0
9863	0
9864	0
9865	0
9866	0
9867	0
9868	0
9869	0
9870	0
9871	0
9872	0
9873	0
9874	0
9875	0
9876	0
9877	0
9878	0
9879	0
9880	0
9881	0
9882	0
9883	0
9884	0
9885	0
9886	0
9887	0
9888	0
9889	0
9890	0
9891	0
9892	0
9893	0
9894	0
9895	0
9896	0
9897	0
9898	0
9899	0
9900	0
9901	0
9902	0
9903	0
9904	0
9905	0
9906	0
9907	0
9908	0
9909	0
9910	0
9911	0
9912	0
9913	0
9914	0
9915	0
9916	0
9917	0
9918	0
9919	0
9920	0
9921	0
9922	0
9923	0
9924	0
9925	0
9926	0
9927	0
9928	0
9929	0
9930	0
9931	0
9932	0
9933	0
9934	0
9935	0
9936	0
9937	0
9938	0
9939	0
9940	0
9941	0
9942	0
9943	0
9944	0
9945	0
9946	0
9947	0
9948	0
9949	0
9950	0
9951	0
9952	0
9953	0
9954	0
9955	0
9956	0
9957	0
9958	0
9959	0
9960	0
9961	0
9962	0
9963	0
9964	0
9965	0
9966	0
9967	0
9968	0
9969	0
9970	0
9971	0
9972	0
9973	0
9974	0
9975	0
9976	0
9977	0
9978	0
9979	0
9980	0
9981	0
9982	0
9983	0
9984	0
9985	0
9986	0
9987	0
9988	0
9989	0
9990	0
9991	0
9992	0
9993	0
9994	0
9995	0
9996	0
9997	0
9998	0
9999	0
10000	0
